(kicad_pcb (version 20171130) (host pcbnew 5.1.4)

  (general
    (thickness 1.6)
    (drawings 14)
    (tracks 243)
    (zones 0)
    (modules 26)
    (nets 33)
  )

  (page A4)
  (layers
    (0 F.Cu signal)
    (31 B.Cu signal)
    (32 B.Adhes user hide)
    (33 F.Adhes user hide)
    (34 B.Paste user hide)
    (35 F.Paste user hide)
    (36 B.SilkS user hide)
    (37 F.SilkS user)
    (38 B.Mask user)
    (39 F.Mask user hide)
    (40 Dwgs.User user hide)
    (41 Cmts.User user hide)
    (42 Eco1.User user hide)
    (43 Eco2.User user hide)
    (44 Edge.Cuts user hide)
    (45 Margin user hide)
    (46 B.CrtYd user hide)
    (47 F.CrtYd user)
    (48 B.Fab user hide)
    (49 F.Fab user)
  )

  (setup
    (last_trace_width 1.27)
    (user_trace_width 0.5)
    (user_trace_width 0.63)
    (user_trace_width 0.8)
    (user_trace_width 1.27)
    (user_trace_width 2.54)
    (trace_clearance 0.5)
    (zone_clearance 0.508)
    (zone_45_only no)
    (trace_min 0.2)
    (via_size 0.8)
    (via_drill 0.4)
    (via_min_size 0.4)
    (via_min_drill 0.3)
    (user_via 1.2 0.8)
    (user_via 1.8 1)
    (user_via 2 1)
    (uvia_size 0.3)
    (uvia_drill 0.1)
    (uvias_allowed no)
    (uvia_min_size 0.2)
    (uvia_min_drill 0.1)
    (edge_width 0.05)
    (segment_width 0.2)
    (pcb_text_width 0.3)
    (pcb_text_size 1.5 1.5)
    (mod_edge_width 0.12)
    (mod_text_size 1 1)
    (mod_text_width 0.15)
    (pad_size 1.524 1.524)
    (pad_drill 0.762)
    (pad_to_mask_clearance 0.051)
    (solder_mask_min_width 0.25)
    (aux_axis_origin 0 0)
    (visible_elements FFFFFF7F)
    (pcbplotparams
      (layerselection 0x00000_fffffffe)
      (usegerberextensions false)
      (usegerberattributes false)
      (usegerberadvancedattributes false)
      (creategerberjobfile false)
      (excludeedgelayer true)
      (linewidth 0.100000)
      (plotframeref false)
      (viasonmask false)
      (mode 1)
      (useauxorigin false)
      (hpglpennumber 1)
      (hpglpenspeed 20)
      (hpglpendiameter 15.000000)
      (psnegative false)
      (psa4output false)
      (plotreference false)
      (plotvalue false)
      (plotinvisibletext false)
      (padsonsilk false)
      (subtractmaskfromsilk false)
      (outputformat 1)
      (mirror false)
      (drillshape 0)
      (scaleselection 1)
      (outputdirectory ""))
  )

  (net 0 "")
  (net 1 GND)
  (net 2 "Net-(C1-Pad1)")
  (net 3 "Net-(C2-Pad1)")
  (net 4 VCC)
  (net 5 D-)
  (net 6 D+)
  (net 7 "Net-(J1-Pad1)")
  (net 8 MISO)
  (net 9 SCK)
  (net 10 MOSI)
  (net 11 RST)
  (net 12 "Net-(J3-Pad1)")
  (net 13 "Net-(J3-Pad2)")
  (net 14 "Net-(J3-Pad3)")
  (net 15 "Net-(J4-Pad6)")
  (net 16 "Net-(J4-Pad5)")
  (net 17 "Net-(J4-Pad4)")
  (net 18 "Net-(J4-Pad3)")
  (net 19 "Net-(J4-Pad2)")
  (net 20 "Net-(J4-Pad1)")
  (net 21 "Net-(J5-Pad2)")
  (net 22 "Net-(J5-Pad1)")
  (net 23 int1)
  (net 24 "Net-(J7-Pad3)")
  (net 25 "Net-(J7-Pad2)")
  (net 26 "Net-(J7-Pad1)")
  (net 27 "Net-(J10-Pad2)")
  (net 28 "Net-(J10-Pad3)")
  (net 29 "Net-(J10-Pad5)")
  (net 30 >D+)
  (net 31 >D-)
  (net 32 "Net-(D3-Pad2)")

  (net_class Default "This is the default net class."
    (clearance 0.5)
    (trace_width 0.25)
    (via_dia 0.8)
    (via_drill 0.4)
    (uvia_dia 0.3)
    (uvia_drill 0.1)
    (add_net >D+)
    (add_net >D-)
    (add_net D+)
    (add_net D-)
    (add_net GND)
    (add_net MISO)
    (add_net MOSI)
    (add_net "Net-(C1-Pad1)")
    (add_net "Net-(C2-Pad1)")
    (add_net "Net-(D3-Pad2)")
    (add_net "Net-(J1-Pad1)")
    (add_net "Net-(J10-Pad2)")
    (add_net "Net-(J10-Pad3)")
    (add_net "Net-(J10-Pad5)")
    (add_net "Net-(J3-Pad1)")
    (add_net "Net-(J3-Pad2)")
    (add_net "Net-(J3-Pad3)")
    (add_net "Net-(J4-Pad1)")
    (add_net "Net-(J4-Pad2)")
    (add_net "Net-(J4-Pad3)")
    (add_net "Net-(J4-Pad4)")
    (add_net "Net-(J4-Pad5)")
    (add_net "Net-(J4-Pad6)")
    (add_net "Net-(J5-Pad1)")
    (add_net "Net-(J5-Pad2)")
    (add_net "Net-(J7-Pad1)")
    (add_net "Net-(J7-Pad2)")
    (add_net "Net-(J7-Pad3)")
    (add_net RST)
    (add_net SCK)
    (add_net VCC)
    (add_net int1)
  )

  (module Capacitors_THT:C_Disc_D3.0mm_W1.6mm_P2.50mm (layer F.Cu) (tedit 5AE50EF0) (tstamp 5D88BB4C)
    (at 75.565 76.073 180)
    (descr "C, Disc series, Radial, pin pitch=2.50mm, , diameter*width=3.0*1.6mm^2, Capacitor, http://www.vishay.com/docs/45233/krseries.pdf")
    (tags "C Disc series Radial pin pitch 2.50mm  diameter 3.0mm width 1.6mm Capacitor")
    (path /5D88B17F)
    (fp_text reference C1 (at 1.25 -2.05) (layer F.SilkS)
      (effects (font (size 1 1) (thickness 0.15)))
    )
    (fp_text value 22pF (at 1.25 2.05) (layer F.Fab)
      (effects (font (size 1 1) (thickness 0.15)))
    )
    (fp_text user %R (at 1.25 0) (layer F.Fab)
      (effects (font (size 0.6 0.6) (thickness 0.09)))
    )
    (fp_line (start 3.55 -1.05) (end -1.05 -1.05) (layer F.CrtYd) (width 0.05))
    (fp_line (start 3.55 1.05) (end 3.55 -1.05) (layer F.CrtYd) (width 0.05))
    (fp_line (start -1.05 1.05) (end 3.55 1.05) (layer F.CrtYd) (width 0.05))
    (fp_line (start -1.05 -1.05) (end -1.05 1.05) (layer F.CrtYd) (width 0.05))
    (fp_line (start 0.621 0.92) (end 1.879 0.92) (layer F.SilkS) (width 0.12))
    (fp_line (start 0.621 -0.92) (end 1.879 -0.92) (layer F.SilkS) (width 0.12))
    (fp_line (start 2.75 -0.8) (end -0.25 -0.8) (layer F.Fab) (width 0.1))
    (fp_line (start 2.75 0.8) (end 2.75 -0.8) (layer F.Fab) (width 0.1))
    (fp_line (start -0.25 0.8) (end 2.75 0.8) (layer F.Fab) (width 0.1))
    (fp_line (start -0.25 -0.8) (end -0.25 0.8) (layer F.Fab) (width 0.1))
    (pad 2 thru_hole circle (at 2.5 0 180) (size 1.6 1.6) (drill 0.8) (layers *.Cu *.Mask)
      (net 1 GND))
    (pad 1 thru_hole circle (at 0 0 180) (size 1.6 1.6) (drill 0.8) (layers *.Cu *.Mask)
      (net 2 "Net-(C1-Pad1)"))
    (model ${KISYS3DMOD}/Capacitor_THT.3dshapes/C_Disc_D3.0mm_W1.6mm_P2.50mm.wrl
      (at (xyz 0 0 0))
      (scale (xyz 1 1 1))
      (rotate (xyz 0 0 0))
    )
  )

  (module Capacitors_THT:C_Disc_D3.0mm_W1.6mm_P2.50mm (layer F.Cu) (tedit 5AE50EF0) (tstamp 5D88A99F)
    (at 68.199 76.073)
    (descr "C, Disc series, Radial, pin pitch=2.50mm, , diameter*width=3.0*1.6mm^2, Capacitor, http://www.vishay.com/docs/45233/krseries.pdf")
    (tags "C Disc series Radial pin pitch 2.50mm  diameter 3.0mm width 1.6mm Capacitor")
    (path /5D893355)
    (fp_text reference C2 (at 1.25 -2.05) (layer F.SilkS)
      (effects (font (size 1 1) (thickness 0.15)))
    )
    (fp_text value 22pF (at 1.25 2.05) (layer F.Fab)
      (effects (font (size 1 1) (thickness 0.15)))
    )
    (fp_line (start -0.25 -0.8) (end -0.25 0.8) (layer F.Fab) (width 0.1))
    (fp_line (start -0.25 0.8) (end 2.75 0.8) (layer F.Fab) (width 0.1))
    (fp_line (start 2.75 0.8) (end 2.75 -0.8) (layer F.Fab) (width 0.1))
    (fp_line (start 2.75 -0.8) (end -0.25 -0.8) (layer F.Fab) (width 0.1))
    (fp_line (start 0.621 -0.92) (end 1.879 -0.92) (layer F.SilkS) (width 0.12))
    (fp_line (start 0.621 0.92) (end 1.879 0.92) (layer F.SilkS) (width 0.12))
    (fp_line (start -1.05 -1.05) (end -1.05 1.05) (layer F.CrtYd) (width 0.05))
    (fp_line (start -1.05 1.05) (end 3.55 1.05) (layer F.CrtYd) (width 0.05))
    (fp_line (start 3.55 1.05) (end 3.55 -1.05) (layer F.CrtYd) (width 0.05))
    (fp_line (start 3.55 -1.05) (end -1.05 -1.05) (layer F.CrtYd) (width 0.05))
    (fp_text user %R (at 1.25 0) (layer F.Fab)
      (effects (font (size 0.6 0.6) (thickness 0.09)))
    )
    (pad 1 thru_hole circle (at 0 0) (size 1.6 1.6) (drill 0.8) (layers *.Cu *.Mask)
      (net 3 "Net-(C2-Pad1)"))
    (pad 2 thru_hole circle (at 2.5 0) (size 1.6 1.6) (drill 0.8) (layers *.Cu *.Mask)
      (net 1 GND))
    (model ${KISYS3DMOD}/Capacitor_THT.3dshapes/C_Disc_D3.0mm_W1.6mm_P2.50mm.wrl
      (at (xyz 0 0 0))
      (scale (xyz 1 1 1))
      (rotate (xyz 0 0 0))
    )
  )

  (module Capacitors_THT:CP_Radial_Tantal_D5.0mm_P2.50mm (layer F.Cu) (tedit 5AE50EF0) (tstamp 5D88A9AD)
    (at 71.6915 64.7065 270)
    (descr "CP, Radial_Tantal series, Radial, pin pitch=2.50mm, , diameter=5.0mm, Tantal Electrolytic Capacitor, http://cdn-reichelt.de/documents/datenblatt/B300/TANTAL-TB-Serie%23.pdf")
    (tags "CP Radial_Tantal series Radial pin pitch 2.50mm  diameter 5.0mm Tantal Electrolytic Capacitor")
    (path /5D88AE65)
    (fp_text reference C3 (at 1.25 -3.75 90) (layer F.SilkS)
      (effects (font (size 1 1) (thickness 0.15)))
    )
    (fp_text value C (at 1.25 3.75 90) (layer F.Fab)
      (effects (font (size 1 1) (thickness 0.15)))
    )
    (fp_circle (center 1.25 0) (end 3.75 0) (layer F.Fab) (width 0.1))
    (fp_circle (center 1.25 0) (end 3.87 0) (layer F.SilkS) (width 0.12))
    (fp_circle (center 1.25 0) (end 4 0) (layer F.CrtYd) (width 0.05))
    (fp_line (start -0.883605 -1.0875) (end -0.383605 -1.0875) (layer F.Fab) (width 0.1))
    (fp_line (start -0.633605 -1.3375) (end -0.633605 -0.8375) (layer F.Fab) (width 0.1))
    (fp_line (start -1.554775 -1.475) (end -1.054775 -1.475) (layer F.SilkS) (width 0.12))
    (fp_line (start -1.304775 -1.725) (end -1.304775 -1.225) (layer F.SilkS) (width 0.12))
    (fp_text user %R (at 1.25 0 90) (layer F.Fab)
      (effects (font (size 1 1) (thickness 0.15)))
    )
    (pad 1 thru_hole rect (at 0 0 270) (size 1.6 1.6) (drill 0.8) (layers *.Cu *.Mask)
      (net 4 VCC))
    (pad 2 thru_hole circle (at 2.5 0 270) (size 1.6 1.6) (drill 0.8) (layers *.Cu *.Mask)
      (net 1 GND))
    (model ${KISYS3DMOD}/Capacitor_THT.3dshapes/CP_Radial_Tantal_D5.0mm_P2.50mm.wrl
      (at (xyz 0 0 0))
      (scale (xyz 1 1 1))
      (rotate (xyz 0 0 0))
    )
  )

  (module Diodes_THT:D_T-1_P12.70mm_Horizontal (layer F.Cu) (tedit 5AE50CD5) (tstamp 5D88D6E2)
    (at 70.104 25.908)
    (descr "Diode, T-1 series, Axial, Horizontal, pin pitch=12.7mm, , length*diameter=3.2*2.6mm^2, , http://www.diodes.com/_files/packages/T-1.pdf")
    (tags "Diode T-1 series Axial Horizontal pin pitch 12.7mm  length 3.2mm diameter 2.6mm")
    (path /5D8921AA)
    (fp_text reference D1 (at 6.35 -2.42) (layer F.SilkS)
      (effects (font (size 1 1) (thickness 0.15)))
    )
    (fp_text value D_Zener (at 6.35 2.42) (layer F.Fab)
      (effects (font (size 1 1) (thickness 0.15)))
    )
    (fp_text user K (at 0 -2) (layer F.SilkS)
      (effects (font (size 1 1) (thickness 0.15)))
    )
    (fp_text user K (at 0 -2) (layer F.Fab)
      (effects (font (size 1 1) (thickness 0.15)))
    )
    (fp_text user %R (at 6.59 0) (layer F.Fab)
      (effects (font (size 0.64 0.64) (thickness 0.096)))
    )
    (fp_line (start 13.95 -1.55) (end -1.25 -1.55) (layer F.CrtYd) (width 0.05))
    (fp_line (start 13.95 1.55) (end 13.95 -1.55) (layer F.CrtYd) (width 0.05))
    (fp_line (start -1.25 1.55) (end 13.95 1.55) (layer F.CrtYd) (width 0.05))
    (fp_line (start -1.25 -1.55) (end -1.25 1.55) (layer F.CrtYd) (width 0.05))
    (fp_line (start 5.11 -1.42) (end 5.11 1.42) (layer F.SilkS) (width 0.12))
    (fp_line (start 5.35 -1.42) (end 5.35 1.42) (layer F.SilkS) (width 0.12))
    (fp_line (start 5.23 -1.42) (end 5.23 1.42) (layer F.SilkS) (width 0.12))
    (fp_line (start 11.46 0) (end 8.07 0) (layer F.SilkS) (width 0.12))
    (fp_line (start 1.24 0) (end 4.63 0) (layer F.SilkS) (width 0.12))
    (fp_line (start 8.07 -1.42) (end 4.63 -1.42) (layer F.SilkS) (width 0.12))
    (fp_line (start 8.07 1.42) (end 8.07 -1.42) (layer F.SilkS) (width 0.12))
    (fp_line (start 4.63 1.42) (end 8.07 1.42) (layer F.SilkS) (width 0.12))
    (fp_line (start 4.63 -1.42) (end 4.63 1.42) (layer F.SilkS) (width 0.12))
    (fp_line (start 5.13 -1.3) (end 5.13 1.3) (layer F.Fab) (width 0.1))
    (fp_line (start 5.33 -1.3) (end 5.33 1.3) (layer F.Fab) (width 0.1))
    (fp_line (start 5.23 -1.3) (end 5.23 1.3) (layer F.Fab) (width 0.1))
    (fp_line (start 12.7 0) (end 7.95 0) (layer F.Fab) (width 0.1))
    (fp_line (start 0 0) (end 4.75 0) (layer F.Fab) (width 0.1))
    (fp_line (start 7.95 -1.3) (end 4.75 -1.3) (layer F.Fab) (width 0.1))
    (fp_line (start 7.95 1.3) (end 7.95 -1.3) (layer F.Fab) (width 0.1))
    (fp_line (start 4.75 1.3) (end 7.95 1.3) (layer F.Fab) (width 0.1))
    (fp_line (start 4.75 -1.3) (end 4.75 1.3) (layer F.Fab) (width 0.1))
    (pad 2 thru_hole oval (at 12.7 0) (size 2 2) (drill 1) (layers *.Cu *.Mask)
      (net 1 GND))
    (pad 1 thru_hole rect (at 0 0) (size 2 2) (drill 1) (layers *.Cu *.Mask)
      (net 5 D-))
    (model ${KISYS3DMOD}/Diode_THT.3dshapes/D_T-1_P12.70mm_Horizontal.wrl
      (at (xyz 0 0 0))
      (scale (xyz 1 1 1))
      (rotate (xyz 0 0 0))
    )
  )

  (module Diodes_THT:D_T-1_P12.70mm_Horizontal (layer F.Cu) (tedit 5AE50CD5) (tstamp 5D88B7E7)
    (at 70.104 22.352)
    (descr "Diode, T-1 series, Axial, Horizontal, pin pitch=12.7mm, , length*diameter=3.2*2.6mm^2, , http://www.diodes.com/_files/packages/T-1.pdf")
    (tags "Diode T-1 series Axial Horizontal pin pitch 12.7mm  length 3.2mm diameter 2.6mm")
    (path /5D8AF3DB)
    (fp_text reference D2 (at 6.35 -2.42) (layer F.SilkS)
      (effects (font (size 1 1) (thickness 0.15)))
    )
    (fp_text value D_Zener (at 6.35 2.42) (layer F.Fab)
      (effects (font (size 1 1) (thickness 0.15)))
    )
    (fp_line (start 4.75 -1.3) (end 4.75 1.3) (layer F.Fab) (width 0.1))
    (fp_line (start 4.75 1.3) (end 7.95 1.3) (layer F.Fab) (width 0.1))
    (fp_line (start 7.95 1.3) (end 7.95 -1.3) (layer F.Fab) (width 0.1))
    (fp_line (start 7.95 -1.3) (end 4.75 -1.3) (layer F.Fab) (width 0.1))
    (fp_line (start 0 0) (end 4.75 0) (layer F.Fab) (width 0.1))
    (fp_line (start 12.7 0) (end 7.95 0) (layer F.Fab) (width 0.1))
    (fp_line (start 5.23 -1.3) (end 5.23 1.3) (layer F.Fab) (width 0.1))
    (fp_line (start 5.33 -1.3) (end 5.33 1.3) (layer F.Fab) (width 0.1))
    (fp_line (start 5.13 -1.3) (end 5.13 1.3) (layer F.Fab) (width 0.1))
    (fp_line (start 4.63 -1.42) (end 4.63 1.42) (layer F.SilkS) (width 0.12))
    (fp_line (start 4.63 1.42) (end 8.07 1.42) (layer F.SilkS) (width 0.12))
    (fp_line (start 8.07 1.42) (end 8.07 -1.42) (layer F.SilkS) (width 0.12))
    (fp_line (start 8.07 -1.42) (end 4.63 -1.42) (layer F.SilkS) (width 0.12))
    (fp_line (start 1.24 0) (end 4.63 0) (layer F.SilkS) (width 0.12))
    (fp_line (start 11.46 0) (end 8.07 0) (layer F.SilkS) (width 0.12))
    (fp_line (start 5.23 -1.42) (end 5.23 1.42) (layer F.SilkS) (width 0.12))
    (fp_line (start 5.35 -1.42) (end 5.35 1.42) (layer F.SilkS) (width 0.12))
    (fp_line (start 5.11 -1.42) (end 5.11 1.42) (layer F.SilkS) (width 0.12))
    (fp_line (start -1.25 -1.55) (end -1.25 1.55) (layer F.CrtYd) (width 0.05))
    (fp_line (start -1.25 1.55) (end 13.95 1.55) (layer F.CrtYd) (width 0.05))
    (fp_line (start 13.95 1.55) (end 13.95 -1.55) (layer F.CrtYd) (width 0.05))
    (fp_line (start 13.95 -1.55) (end -1.25 -1.55) (layer F.CrtYd) (width 0.05))
    (fp_text user %R (at 6.59 0) (layer F.Fab)
      (effects (font (size 0.64 0.64) (thickness 0.096)))
    )
    (fp_text user K (at 0 -2) (layer F.Fab)
      (effects (font (size 1 1) (thickness 0.15)))
    )
    (fp_text user K (at 0 -2) (layer F.SilkS)
      (effects (font (size 1 1) (thickness 0.15)))
    )
    (pad 1 thru_hole rect (at 0 0) (size 2 2) (drill 1) (layers *.Cu *.Mask)
      (net 6 D+))
    (pad 2 thru_hole oval (at 12.7 0) (size 2 2) (drill 1) (layers *.Cu *.Mask)
      (net 1 GND))
    (model ${KISYS3DMOD}/Diode_THT.3dshapes/D_T-1_P12.70mm_Horizontal.wrl
      (at (xyz 0 0 0))
      (scale (xyz 1 1 1))
      (rotate (xyz 0 0 0))
    )
  )

  (module pin_headers:PinHeader_1x02_P2.54mm_Vertical (layer F.Cu) (tedit 59FED5CC) (tstamp 5D88C04A)
    (at 91.3765 67.056 90)
    (descr "Through hole straight pin header, 1x02, 2.54mm pitch, single row")
    (tags "Through hole pin header THT 1x02 2.54mm single row")
    (path /5D8FFD29)
    (fp_text reference J1 (at 0 -2.33 90) (layer F.SilkS)
      (effects (font (size 1 1) (thickness 0.15)))
    )
    (fp_text value Conn_01x02_Male (at 0 4.87 90) (layer F.Fab)
      (effects (font (size 1 1) (thickness 0.15)))
    )
    (fp_line (start -0.635 -1.27) (end 1.27 -1.27) (layer F.Fab) (width 0.1))
    (fp_line (start 1.27 -1.27) (end 1.27 3.81) (layer F.Fab) (width 0.1))
    (fp_line (start 1.27 3.81) (end -1.27 3.81) (layer F.Fab) (width 0.1))
    (fp_line (start -1.27 3.81) (end -1.27 -0.635) (layer F.Fab) (width 0.1))
    (fp_line (start -1.27 -0.635) (end -0.635 -1.27) (layer F.Fab) (width 0.1))
    (fp_line (start -1.33 3.87) (end 1.33 3.87) (layer F.SilkS) (width 0.12))
    (fp_line (start -1.33 1.27) (end -1.33 3.87) (layer F.SilkS) (width 0.12))
    (fp_line (start 1.33 1.27) (end 1.33 3.87) (layer F.SilkS) (width 0.12))
    (fp_line (start -1.33 1.27) (end 1.33 1.27) (layer F.SilkS) (width 0.12))
    (fp_line (start -1.33 0) (end -1.33 -1.33) (layer F.SilkS) (width 0.12))
    (fp_line (start -1.33 -1.33) (end 0 -1.33) (layer F.SilkS) (width 0.12))
    (fp_line (start -1.8 -1.8) (end -1.8 4.35) (layer F.CrtYd) (width 0.05))
    (fp_line (start -1.8 4.35) (end 1.8 4.35) (layer F.CrtYd) (width 0.05))
    (fp_line (start 1.8 4.35) (end 1.8 -1.8) (layer F.CrtYd) (width 0.05))
    (fp_line (start 1.8 -1.8) (end -1.8 -1.8) (layer F.CrtYd) (width 0.05))
    (fp_text user %R (at 0 1.27) (layer F.Fab)
      (effects (font (size 1 1) (thickness 0.15)))
    )
    (pad 1 thru_hole rect (at 0 0 90) (size 1.7 1.7) (drill 1) (layers *.Cu *.Mask)
      (net 7 "Net-(J1-Pad1)"))
    (pad 2 thru_hole oval (at 0 2.54 90) (size 1.7 1.7) (drill 1) (layers *.Cu *.Mask)
      (net 1 GND))
    (model ${KISYS3DMOD}/Connector_PinHeader_2.54mm.3dshapes/PinHeader_1x02_P2.54mm_Vertical.wrl
      (at (xyz 0 0 0))
      (scale (xyz 1 1 1))
      (rotate (xyz 0 0 0))
    )
  )

  (module pin_headers:PinHeader_2x03_P2.54mm_Vertical (layer F.Cu) (tedit 59FED5CC) (tstamp 5D88AA1D)
    (at 102.5525 81.153 270)
    (descr "Through hole straight pin header, 2x03, 2.54mm pitch, double rows")
    (tags "Through hole pin header THT 2x03 2.54mm double row")
    (path /5D88F43E)
    (fp_text reference J2 (at 1.27 -2.33 90) (layer F.SilkS)
      (effects (font (size 1 1) (thickness 0.15)))
    )
    (fp_text value AVR-ISP-6 (at 1.27 7.41 90) (layer F.Fab)
      (effects (font (size 1 1) (thickness 0.15)))
    )
    (fp_line (start 0 -1.27) (end 3.81 -1.27) (layer F.Fab) (width 0.1))
    (fp_line (start 3.81 -1.27) (end 3.81 6.35) (layer F.Fab) (width 0.1))
    (fp_line (start 3.81 6.35) (end -1.27 6.35) (layer F.Fab) (width 0.1))
    (fp_line (start -1.27 6.35) (end -1.27 0) (layer F.Fab) (width 0.1))
    (fp_line (start -1.27 0) (end 0 -1.27) (layer F.Fab) (width 0.1))
    (fp_line (start -1.33 6.41) (end 3.87 6.41) (layer F.SilkS) (width 0.12))
    (fp_line (start -1.33 1.27) (end -1.33 6.41) (layer F.SilkS) (width 0.12))
    (fp_line (start 3.87 -1.33) (end 3.87 6.41) (layer F.SilkS) (width 0.12))
    (fp_line (start -1.33 1.27) (end 1.27 1.27) (layer F.SilkS) (width 0.12))
    (fp_line (start 1.27 1.27) (end 1.27 -1.33) (layer F.SilkS) (width 0.12))
    (fp_line (start 1.27 -1.33) (end 3.87 -1.33) (layer F.SilkS) (width 0.12))
    (fp_line (start -1.33 0) (end -1.33 -1.33) (layer F.SilkS) (width 0.12))
    (fp_line (start -1.33 -1.33) (end 0 -1.33) (layer F.SilkS) (width 0.12))
    (fp_line (start -1.8 -1.8) (end -1.8 6.85) (layer F.CrtYd) (width 0.05))
    (fp_line (start -1.8 6.85) (end 4.35 6.85) (layer F.CrtYd) (width 0.05))
    (fp_line (start 4.35 6.85) (end 4.35 -1.8) (layer F.CrtYd) (width 0.05))
    (fp_line (start 4.35 -1.8) (end -1.8 -1.8) (layer F.CrtYd) (width 0.05))
    (fp_text user %R (at 1.27 2.54) (layer F.Fab)
      (effects (font (size 1 1) (thickness 0.15)))
    )
    (pad 1 thru_hole rect (at 0 0 270) (size 1.7 1.7) (drill 1) (layers *.Cu *.Mask)
      (net 8 MISO))
    (pad 2 thru_hole oval (at 2.54 0 270) (size 1.7 1.7) (drill 1) (layers *.Cu *.Mask)
      (net 4 VCC))
    (pad 3 thru_hole oval (at 0 2.54 270) (size 1.7 1.7) (drill 1) (layers *.Cu *.Mask)
      (net 9 SCK))
    (pad 4 thru_hole oval (at 2.54 2.54 270) (size 1.7 1.7) (drill 1) (layers *.Cu *.Mask)
      (net 10 MOSI))
    (pad 5 thru_hole oval (at 0 5.08 270) (size 1.7 1.7) (drill 1) (layers *.Cu *.Mask)
      (net 11 RST))
    (pad 6 thru_hole oval (at 2.54 5.08 270) (size 1.7 1.7) (drill 1) (layers *.Cu *.Mask)
      (net 1 GND))
    (model ${KISYS3DMOD}/Connector_PinHeader_2.54mm.3dshapes/PinHeader_2x03_P2.54mm_Vertical.wrl
      (at (xyz 0 0 0))
      (scale (xyz 1 1 1))
      (rotate (xyz 0 0 0))
    )
  )

  (module pin_headers:PinHeader_1x03_P2.54mm_Vertical (layer F.Cu) (tedit 59FED5CC) (tstamp 5D88AA34)
    (at 89.5985 86.8045 270)
    (descr "Through hole straight pin header, 1x03, 2.54mm pitch, single row")
    (tags "Through hole pin header THT 1x03 2.54mm single row")
    (path /5D8F2EED)
    (fp_text reference J3 (at 0 -2.33 90) (layer F.SilkS)
      (effects (font (size 1 1) (thickness 0.15)))
    )
    (fp_text value Conn_01x03_Male (at 0 7.41 90) (layer F.Fab)
      (effects (font (size 1 1) (thickness 0.15)))
    )
    (fp_line (start -0.635 -1.27) (end 1.27 -1.27) (layer F.Fab) (width 0.1))
    (fp_line (start 1.27 -1.27) (end 1.27 6.35) (layer F.Fab) (width 0.1))
    (fp_line (start 1.27 6.35) (end -1.27 6.35) (layer F.Fab) (width 0.1))
    (fp_line (start -1.27 6.35) (end -1.27 -0.635) (layer F.Fab) (width 0.1))
    (fp_line (start -1.27 -0.635) (end -0.635 -1.27) (layer F.Fab) (width 0.1))
    (fp_line (start -1.33 6.41) (end 1.33 6.41) (layer F.SilkS) (width 0.12))
    (fp_line (start -1.33 1.27) (end -1.33 6.41) (layer F.SilkS) (width 0.12))
    (fp_line (start 1.33 1.27) (end 1.33 6.41) (layer F.SilkS) (width 0.12))
    (fp_line (start -1.33 1.27) (end 1.33 1.27) (layer F.SilkS) (width 0.12))
    (fp_line (start -1.33 0) (end -1.33 -1.33) (layer F.SilkS) (width 0.12))
    (fp_line (start -1.33 -1.33) (end 0 -1.33) (layer F.SilkS) (width 0.12))
    (fp_line (start -1.8 -1.8) (end -1.8 6.85) (layer F.CrtYd) (width 0.05))
    (fp_line (start -1.8 6.85) (end 1.8 6.85) (layer F.CrtYd) (width 0.05))
    (fp_line (start 1.8 6.85) (end 1.8 -1.8) (layer F.CrtYd) (width 0.05))
    (fp_line (start 1.8 -1.8) (end -1.8 -1.8) (layer F.CrtYd) (width 0.05))
    (fp_text user %R (at 0 2.54) (layer F.Fab)
      (effects (font (size 1 1) (thickness 0.15)))
    )
    (pad 1 thru_hole rect (at 0 0 270) (size 1.7 1.7) (drill 1) (layers *.Cu *.Mask)
      (net 12 "Net-(J3-Pad1)"))
    (pad 2 thru_hole oval (at 0 2.54 270) (size 1.7 1.7) (drill 1) (layers *.Cu *.Mask)
      (net 13 "Net-(J3-Pad2)"))
    (pad 3 thru_hole oval (at 0 5.08 270) (size 1.7 1.7) (drill 1) (layers *.Cu *.Mask)
      (net 14 "Net-(J3-Pad3)"))
    (model ${KISYS3DMOD}/Connector_PinHeader_2.54mm.3dshapes/PinHeader_1x03_P2.54mm_Vertical.wrl
      (at (xyz 0 0 0))
      (scale (xyz 1 1 1))
      (rotate (xyz 0 0 0))
    )
  )

  (module pin_headers:PinHeader_1x06_P2.54mm_Vertical (layer F.Cu) (tedit 59FED5CC) (tstamp 5D88AA4E)
    (at 91.694 50.1015)
    (descr "Through hole straight pin header, 1x06, 2.54mm pitch, single row")
    (tags "Through hole pin header THT 1x06 2.54mm single row")
    (path /5D8F94C7)
    (fp_text reference J4 (at 0 -2.33) (layer F.SilkS)
      (effects (font (size 1 1) (thickness 0.15)))
    )
    (fp_text value Conn_01x06_Male (at 0 15.03) (layer F.Fab)
      (effects (font (size 1 1) (thickness 0.15)))
    )
    (fp_text user %R (at 0 6.35 90) (layer F.Fab)
      (effects (font (size 1 1) (thickness 0.15)))
    )
    (fp_line (start 1.8 -1.8) (end -1.8 -1.8) (layer F.CrtYd) (width 0.05))
    (fp_line (start 1.8 14.5) (end 1.8 -1.8) (layer F.CrtYd) (width 0.05))
    (fp_line (start -1.8 14.5) (end 1.8 14.5) (layer F.CrtYd) (width 0.05))
    (fp_line (start -1.8 -1.8) (end -1.8 14.5) (layer F.CrtYd) (width 0.05))
    (fp_line (start -1.33 -1.33) (end 0 -1.33) (layer F.SilkS) (width 0.12))
    (fp_line (start -1.33 0) (end -1.33 -1.33) (layer F.SilkS) (width 0.12))
    (fp_line (start -1.33 1.27) (end 1.33 1.27) (layer F.SilkS) (width 0.12))
    (fp_line (start 1.33 1.27) (end 1.33 14.03) (layer F.SilkS) (width 0.12))
    (fp_line (start -1.33 1.27) (end -1.33 14.03) (layer F.SilkS) (width 0.12))
    (fp_line (start -1.33 14.03) (end 1.33 14.03) (layer F.SilkS) (width 0.12))
    (fp_line (start -1.27 -0.635) (end -0.635 -1.27) (layer F.Fab) (width 0.1))
    (fp_line (start -1.27 13.97) (end -1.27 -0.635) (layer F.Fab) (width 0.1))
    (fp_line (start 1.27 13.97) (end -1.27 13.97) (layer F.Fab) (width 0.1))
    (fp_line (start 1.27 -1.27) (end 1.27 13.97) (layer F.Fab) (width 0.1))
    (fp_line (start -0.635 -1.27) (end 1.27 -1.27) (layer F.Fab) (width 0.1))
    (pad 6 thru_hole oval (at 0 12.7) (size 1.7 1.7) (drill 1) (layers *.Cu *.Mask)
      (net 15 "Net-(J4-Pad6)"))
    (pad 5 thru_hole oval (at 0 10.16) (size 1.7 1.7) (drill 1) (layers *.Cu *.Mask)
      (net 16 "Net-(J4-Pad5)"))
    (pad 4 thru_hole oval (at 0 7.62) (size 1.7 1.7) (drill 1) (layers *.Cu *.Mask)
      (net 17 "Net-(J4-Pad4)"))
    (pad 3 thru_hole oval (at 0 5.08) (size 1.7 1.7) (drill 1) (layers *.Cu *.Mask)
      (net 18 "Net-(J4-Pad3)"))
    (pad 2 thru_hole oval (at 0 2.54) (size 1.7 1.7) (drill 1) (layers *.Cu *.Mask)
      (net 19 "Net-(J4-Pad2)"))
    (pad 1 thru_hole rect (at 0 0) (size 1.7 1.7) (drill 1) (layers *.Cu *.Mask)
      (net 20 "Net-(J4-Pad1)"))
    (model ${KISYS3DMOD}/Connector_PinHeader_2.54mm.3dshapes/PinHeader_1x06_P2.54mm_Vertical.wrl
      (at (xyz 0 0 0))
      (scale (xyz 1 1 1))
      (rotate (xyz 0 0 0))
    )
  )

  (module pin_headers:PinHeader_1x02_P2.54mm_Vertical (layer F.Cu) (tedit 59FED5CC) (tstamp 5D88AA64)
    (at 76.8985 54.0385 180)
    (descr "Through hole straight pin header, 1x02, 2.54mm pitch, single row")
    (tags "Through hole pin header THT 1x02 2.54mm single row")
    (path /5D8F73DB)
    (fp_text reference J5 (at 0 -2.33) (layer F.SilkS)
      (effects (font (size 1 1) (thickness 0.15)))
    )
    (fp_text value Conn_01x02_Male (at 0 4.87) (layer F.Fab)
      (effects (font (size 1 1) (thickness 0.15)))
    )
    (fp_text user %R (at 0 1.27 90) (layer F.Fab)
      (effects (font (size 1 1) (thickness 0.15)))
    )
    (fp_line (start 1.8 -1.8) (end -1.8 -1.8) (layer F.CrtYd) (width 0.05))
    (fp_line (start 1.8 4.35) (end 1.8 -1.8) (layer F.CrtYd) (width 0.05))
    (fp_line (start -1.8 4.35) (end 1.8 4.35) (layer F.CrtYd) (width 0.05))
    (fp_line (start -1.8 -1.8) (end -1.8 4.35) (layer F.CrtYd) (width 0.05))
    (fp_line (start -1.33 -1.33) (end 0 -1.33) (layer F.SilkS) (width 0.12))
    (fp_line (start -1.33 0) (end -1.33 -1.33) (layer F.SilkS) (width 0.12))
    (fp_line (start -1.33 1.27) (end 1.33 1.27) (layer F.SilkS) (width 0.12))
    (fp_line (start 1.33 1.27) (end 1.33 3.87) (layer F.SilkS) (width 0.12))
    (fp_line (start -1.33 1.27) (end -1.33 3.87) (layer F.SilkS) (width 0.12))
    (fp_line (start -1.33 3.87) (end 1.33 3.87) (layer F.SilkS) (width 0.12))
    (fp_line (start -1.27 -0.635) (end -0.635 -1.27) (layer F.Fab) (width 0.1))
    (fp_line (start -1.27 3.81) (end -1.27 -0.635) (layer F.Fab) (width 0.1))
    (fp_line (start 1.27 3.81) (end -1.27 3.81) (layer F.Fab) (width 0.1))
    (fp_line (start 1.27 -1.27) (end 1.27 3.81) (layer F.Fab) (width 0.1))
    (fp_line (start -0.635 -1.27) (end 1.27 -1.27) (layer F.Fab) (width 0.1))
    (pad 2 thru_hole oval (at 0 2.54 180) (size 1.7 1.7) (drill 1) (layers *.Cu *.Mask)
      (net 21 "Net-(J5-Pad2)"))
    (pad 1 thru_hole rect (at 0 0 180) (size 1.7 1.7) (drill 1) (layers *.Cu *.Mask)
      (net 22 "Net-(J5-Pad1)"))
    (model ${KISYS3DMOD}/Connector_PinHeader_2.54mm.3dshapes/PinHeader_1x02_P2.54mm_Vertical.wrl
      (at (xyz 0 0 0))
      (scale (xyz 1 1 1))
      (rotate (xyz 0 0 0))
    )
  )

  (module pin_headers:PinHeader_1x03_P2.54mm_Vertical (layer F.Cu) (tedit 59FED5CC) (tstamp 5D88AA7B)
    (at 76.962 62.8015 180)
    (descr "Through hole straight pin header, 1x03, 2.54mm pitch, single row")
    (tags "Through hole pin header THT 1x03 2.54mm single row")
    (path /5D8F8451)
    (fp_text reference J6 (at 0 -2.33) (layer F.SilkS)
      (effects (font (size 1 1) (thickness 0.15)))
    )
    (fp_text value Conn_01x03_Male (at 0 7.41) (layer F.Fab)
      (effects (font (size 1 1) (thickness 0.15)))
    )
    (fp_line (start -0.635 -1.27) (end 1.27 -1.27) (layer F.Fab) (width 0.1))
    (fp_line (start 1.27 -1.27) (end 1.27 6.35) (layer F.Fab) (width 0.1))
    (fp_line (start 1.27 6.35) (end -1.27 6.35) (layer F.Fab) (width 0.1))
    (fp_line (start -1.27 6.35) (end -1.27 -0.635) (layer F.Fab) (width 0.1))
    (fp_line (start -1.27 -0.635) (end -0.635 -1.27) (layer F.Fab) (width 0.1))
    (fp_line (start -1.33 6.41) (end 1.33 6.41) (layer F.SilkS) (width 0.12))
    (fp_line (start -1.33 1.27) (end -1.33 6.41) (layer F.SilkS) (width 0.12))
    (fp_line (start 1.33 1.27) (end 1.33 6.41) (layer F.SilkS) (width 0.12))
    (fp_line (start -1.33 1.27) (end 1.33 1.27) (layer F.SilkS) (width 0.12))
    (fp_line (start -1.33 0) (end -1.33 -1.33) (layer F.SilkS) (width 0.12))
    (fp_line (start -1.33 -1.33) (end 0 -1.33) (layer F.SilkS) (width 0.12))
    (fp_line (start -1.8 -1.8) (end -1.8 6.85) (layer F.CrtYd) (width 0.05))
    (fp_line (start -1.8 6.85) (end 1.8 6.85) (layer F.CrtYd) (width 0.05))
    (fp_line (start 1.8 6.85) (end 1.8 -1.8) (layer F.CrtYd) (width 0.05))
    (fp_line (start 1.8 -1.8) (end -1.8 -1.8) (layer F.CrtYd) (width 0.05))
    (fp_text user %R (at 0 2.54 90) (layer F.Fab)
      (effects (font (size 1 1) (thickness 0.15)))
    )
    (pad 1 thru_hole rect (at 0 0 180) (size 1.7 1.7) (drill 1) (layers *.Cu *.Mask)
      (net 30 >D+))
    (pad 2 thru_hole oval (at 0 2.54 180) (size 1.7 1.7) (drill 1) (layers *.Cu *.Mask)
      (net 23 int1))
    (pad 3 thru_hole oval (at 0 5.08 180) (size 1.7 1.7) (drill 1) (layers *.Cu *.Mask)
      (net 31 >D-))
    (model ${KISYS3DMOD}/Connector_PinHeader_2.54mm.3dshapes/PinHeader_1x03_P2.54mm_Vertical.wrl
      (at (xyz 0 0 0))
      (scale (xyz 1 1 1))
      (rotate (xyz 0 0 0))
    )
  )

  (module pin_headers:PinHeader_1x03_P2.54mm_Vertical (layer F.Cu) (tedit 59FED5CC) (tstamp 5D88AA92)
    (at 73.787 85.2805 180)
    (descr "Through hole straight pin header, 1x03, 2.54mm pitch, single row")
    (tags "Through hole pin header THT 1x03 2.54mm single row")
    (path /5D8F6504)
    (fp_text reference J7 (at 0 -2.33) (layer F.SilkS)
      (effects (font (size 1 1) (thickness 0.15)))
    )
    (fp_text value Conn_01x03_Male (at 0 7.41) (layer F.Fab)
      (effects (font (size 1 1) (thickness 0.15)))
    )
    (fp_text user %R (at 0 2.54 90) (layer F.Fab)
      (effects (font (size 1 1) (thickness 0.15)))
    )
    (fp_line (start 1.8 -1.8) (end -1.8 -1.8) (layer F.CrtYd) (width 0.05))
    (fp_line (start 1.8 6.85) (end 1.8 -1.8) (layer F.CrtYd) (width 0.05))
    (fp_line (start -1.8 6.85) (end 1.8 6.85) (layer F.CrtYd) (width 0.05))
    (fp_line (start -1.8 -1.8) (end -1.8 6.85) (layer F.CrtYd) (width 0.05))
    (fp_line (start -1.33 -1.33) (end 0 -1.33) (layer F.SilkS) (width 0.12))
    (fp_line (start -1.33 0) (end -1.33 -1.33) (layer F.SilkS) (width 0.12))
    (fp_line (start -1.33 1.27) (end 1.33 1.27) (layer F.SilkS) (width 0.12))
    (fp_line (start 1.33 1.27) (end 1.33 6.41) (layer F.SilkS) (width 0.12))
    (fp_line (start -1.33 1.27) (end -1.33 6.41) (layer F.SilkS) (width 0.12))
    (fp_line (start -1.33 6.41) (end 1.33 6.41) (layer F.SilkS) (width 0.12))
    (fp_line (start -1.27 -0.635) (end -0.635 -1.27) (layer F.Fab) (width 0.1))
    (fp_line (start -1.27 6.35) (end -1.27 -0.635) (layer F.Fab) (width 0.1))
    (fp_line (start 1.27 6.35) (end -1.27 6.35) (layer F.Fab) (width 0.1))
    (fp_line (start 1.27 -1.27) (end 1.27 6.35) (layer F.Fab) (width 0.1))
    (fp_line (start -0.635 -1.27) (end 1.27 -1.27) (layer F.Fab) (width 0.1))
    (pad 3 thru_hole oval (at 0 5.08 180) (size 1.7 1.7) (drill 1) (layers *.Cu *.Mask)
      (net 24 "Net-(J7-Pad3)"))
    (pad 2 thru_hole oval (at 0 2.54 180) (size 1.7 1.7) (drill 1) (layers *.Cu *.Mask)
      (net 25 "Net-(J7-Pad2)"))
    (pad 1 thru_hole rect (at 0 0 180) (size 1.7 1.7) (drill 1) (layers *.Cu *.Mask)
      (net 26 "Net-(J7-Pad1)"))
    (model ${KISYS3DMOD}/Connector_PinHeader_2.54mm.3dshapes/PinHeader_1x03_P2.54mm_Vertical.wrl
      (at (xyz 0 0 0))
      (scale (xyz 1 1 1))
      (rotate (xyz 0 0 0))
    )
  )

  (module pin_headers:PinHeader_1x02_P2.54mm_Vertical (layer F.Cu) (tedit 59FED5CC) (tstamp 5D88AAA8)
    (at 71.247 49.4665 90)
    (descr "Through hole straight pin header, 1x02, 2.54mm pitch, single row")
    (tags "Through hole pin header THT 1x02 2.54mm single row")
    (path /5D8F02D2)
    (fp_text reference J8 (at 0 -2.33 90) (layer F.SilkS)
      (effects (font (size 1 1) (thickness 0.15)))
    )
    (fp_text value jack (at 0 4.87 90) (layer F.Fab)
      (effects (font (size 1 1) (thickness 0.15)))
    )
    (fp_line (start -0.635 -1.27) (end 1.27 -1.27) (layer F.Fab) (width 0.1))
    (fp_line (start 1.27 -1.27) (end 1.27 3.81) (layer F.Fab) (width 0.1))
    (fp_line (start 1.27 3.81) (end -1.27 3.81) (layer F.Fab) (width 0.1))
    (fp_line (start -1.27 3.81) (end -1.27 -0.635) (layer F.Fab) (width 0.1))
    (fp_line (start -1.27 -0.635) (end -0.635 -1.27) (layer F.Fab) (width 0.1))
    (fp_line (start -1.33 3.87) (end 1.33 3.87) (layer F.SilkS) (width 0.12))
    (fp_line (start -1.33 1.27) (end -1.33 3.87) (layer F.SilkS) (width 0.12))
    (fp_line (start 1.33 1.27) (end 1.33 3.87) (layer F.SilkS) (width 0.12))
    (fp_line (start -1.33 1.27) (end 1.33 1.27) (layer F.SilkS) (width 0.12))
    (fp_line (start -1.33 0) (end -1.33 -1.33) (layer F.SilkS) (width 0.12))
    (fp_line (start -1.33 -1.33) (end 0 -1.33) (layer F.SilkS) (width 0.12))
    (fp_line (start -1.8 -1.8) (end -1.8 4.35) (layer F.CrtYd) (width 0.05))
    (fp_line (start -1.8 4.35) (end 1.8 4.35) (layer F.CrtYd) (width 0.05))
    (fp_line (start 1.8 4.35) (end 1.8 -1.8) (layer F.CrtYd) (width 0.05))
    (fp_line (start 1.8 -1.8) (end -1.8 -1.8) (layer F.CrtYd) (width 0.05))
    (fp_text user %R (at 0 1.27) (layer F.Fab)
      (effects (font (size 1 1) (thickness 0.15)))
    )
    (pad 1 thru_hole rect (at 0 0 90) (size 1.7 1.7) (drill 1) (layers *.Cu *.Mask)
      (net 1 GND))
    (pad 2 thru_hole oval (at 0 2.54 90) (size 1.7 1.7) (drill 1) (layers *.Cu *.Mask)
      (net 23 int1))
    (model ${KISYS3DMOD}/Connector_PinHeader_2.54mm.3dshapes/PinHeader_1x02_P2.54mm_Vertical.wrl
      (at (xyz 0 0 0))
      (scale (xyz 1 1 1))
      (rotate (xyz 0 0 0))
    )
  )

  (module pin_headers:PinHeader_1x06_P2.54mm_Vertical (layer F.Cu) (tedit 59FED5CC) (tstamp 5D88AAC2)
    (at 83.2485 43.6245 270)
    (descr "Through hole straight pin header, 1x06, 2.54mm pitch, single row")
    (tags "Through hole pin header THT 1x06 2.54mm single row")
    (path /5D8FA932)
    (fp_text reference J9 (at 0 -2.33 90) (layer F.SilkS)
      (effects (font (size 1 1) (thickness 0.15)))
    )
    (fp_text value Conn_01x06_Male (at 0 15.03 90) (layer F.Fab)
      (effects (font (size 1 1) (thickness 0.15)))
    )
    (fp_line (start -0.635 -1.27) (end 1.27 -1.27) (layer F.Fab) (width 0.1))
    (fp_line (start 1.27 -1.27) (end 1.27 13.97) (layer F.Fab) (width 0.1))
    (fp_line (start 1.27 13.97) (end -1.27 13.97) (layer F.Fab) (width 0.1))
    (fp_line (start -1.27 13.97) (end -1.27 -0.635) (layer F.Fab) (width 0.1))
    (fp_line (start -1.27 -0.635) (end -0.635 -1.27) (layer F.Fab) (width 0.1))
    (fp_line (start -1.33 14.03) (end 1.33 14.03) (layer F.SilkS) (width 0.12))
    (fp_line (start -1.33 1.27) (end -1.33 14.03) (layer F.SilkS) (width 0.12))
    (fp_line (start 1.33 1.27) (end 1.33 14.03) (layer F.SilkS) (width 0.12))
    (fp_line (start -1.33 1.27) (end 1.33 1.27) (layer F.SilkS) (width 0.12))
    (fp_line (start -1.33 0) (end -1.33 -1.33) (layer F.SilkS) (width 0.12))
    (fp_line (start -1.33 -1.33) (end 0 -1.33) (layer F.SilkS) (width 0.12))
    (fp_line (start -1.8 -1.8) (end -1.8 14.5) (layer F.CrtYd) (width 0.05))
    (fp_line (start -1.8 14.5) (end 1.8 14.5) (layer F.CrtYd) (width 0.05))
    (fp_line (start 1.8 14.5) (end 1.8 -1.8) (layer F.CrtYd) (width 0.05))
    (fp_line (start 1.8 -1.8) (end -1.8 -1.8) (layer F.CrtYd) (width 0.05))
    (fp_text user %R (at 0 6.35) (layer F.Fab)
      (effects (font (size 1 1) (thickness 0.15)))
    )
    (pad 1 thru_hole rect (at 0 0 270) (size 1.7 1.7) (drill 1) (layers *.Cu *.Mask)
      (net 1 GND))
    (pad 2 thru_hole oval (at 0 2.54 270) (size 1.7 1.7) (drill 1) (layers *.Cu *.Mask)
      (net 1 GND))
    (pad 3 thru_hole oval (at 0 5.08 270) (size 1.7 1.7) (drill 1) (layers *.Cu *.Mask)
      (net 1 GND))
    (pad 4 thru_hole oval (at 0 7.62 270) (size 1.7 1.7) (drill 1) (layers *.Cu *.Mask)
      (net 1 GND))
    (pad 5 thru_hole oval (at 0 10.16 270) (size 1.7 1.7) (drill 1) (layers *.Cu *.Mask)
      (net 1 GND))
    (pad 6 thru_hole oval (at 0 12.7 270) (size 1.7 1.7) (drill 1) (layers *.Cu *.Mask)
      (net 1 GND))
    (model ${KISYS3DMOD}/Connector_PinHeader_2.54mm.3dshapes/PinHeader_1x06_P2.54mm_Vertical.wrl
      (at (xyz 0 0 0))
      (scale (xyz 1 1 1))
      (rotate (xyz 0 0 0))
    )
  )

  (module Connectors_USB:USB_B_OST_USB-B1HSxx_Horizontal (layer F.Cu) (tedit 5AFE01FF) (tstamp 5D88AADF)
    (at 86.1568 29.0576)
    (descr "USB B receptacle, Horizontal, through-hole, http://www.on-shore.com/wp-content/uploads/2015/09/usb-b1hsxx.pdf")
    (tags "USB-B receptacle horizontal through-hole")
    (path /5D88FC1B)
    (fp_text reference J10 (at 6.76 -7.77) (layer F.SilkS)
      (effects (font (size 1 1) (thickness 0.15)))
    )
    (fp_text value USB_B (at 6.76 10.27) (layer F.Fab)
      (effects (font (size 1 1) (thickness 0.15)))
    )
    (fp_line (start -0.49 -4.8) (end 15.01 -4.8) (layer F.Fab) (width 0.1))
    (fp_line (start 15.01 -4.8) (end 15.01 7.3) (layer F.Fab) (width 0.1))
    (fp_line (start 15.01 7.3) (end -1.49 7.3) (layer F.Fab) (width 0.1))
    (fp_line (start -1.49 7.3) (end -1.49 -3.8) (layer F.Fab) (width 0.1))
    (fp_line (start -1.49 -3.8) (end -0.49 -4.8) (layer F.Fab) (width 0.1))
    (fp_line (start 2.66 -4.91) (end -1.6 -4.91) (layer F.SilkS) (width 0.12))
    (fp_line (start -1.6 -4.91) (end -1.6 7.41) (layer F.SilkS) (width 0.12))
    (fp_line (start -1.6 7.41) (end 2.66 7.41) (layer F.SilkS) (width 0.12))
    (fp_line (start 6.76 -4.91) (end 15.12 -4.91) (layer F.SilkS) (width 0.12))
    (fp_line (start 15.12 -4.91) (end 15.12 7.41) (layer F.SilkS) (width 0.12))
    (fp_line (start 15.12 7.41) (end 6.76 7.41) (layer F.SilkS) (width 0.12))
    (fp_line (start -1.82 0) (end -2.32 -0.5) (layer F.SilkS) (width 0.12))
    (fp_line (start -2.32 -0.5) (end -2.32 0.5) (layer F.SilkS) (width 0.12))
    (fp_line (start -2.32 0.5) (end -1.82 0) (layer F.SilkS) (width 0.12))
    (fp_line (start -1.99 -7.02) (end -1.99 9.52) (layer F.CrtYd) (width 0.05))
    (fp_line (start -1.99 9.52) (end 15.51 9.52) (layer F.CrtYd) (width 0.05))
    (fp_line (start 15.51 9.52) (end 15.51 -7.02) (layer F.CrtYd) (width 0.05))
    (fp_line (start 15.51 -7.02) (end -1.99 -7.02) (layer F.CrtYd) (width 0.05))
    (fp_text user %R (at 6.76 1.25) (layer F.Fab)
      (effects (font (size 1 1) (thickness 0.15)))
    )
    (pad 1 thru_hole rect (at 0 0) (size 1.7 1.7) (drill 0.92) (layers *.Cu *.Mask)
      (net 4 VCC))
    (pad 2 thru_hole circle (at 0 2.5) (size 1.7 1.7) (drill 0.92) (layers *.Cu *.Mask)
      (net 27 "Net-(J10-Pad2)"))
    (pad 3 thru_hole circle (at 2 2.5) (size 1.7 1.7) (drill 0.92) (layers *.Cu *.Mask)
      (net 28 "Net-(J10-Pad3)"))
    (pad 4 thru_hole circle (at 2 0) (size 1.7 1.7) (drill 0.92) (layers *.Cu *.Mask)
      (net 1 GND))
    (pad 5 thru_hole circle (at 4.71 -4.77) (size 3.5 3.5) (drill 2.33) (layers *.Cu *.Mask)
      (net 29 "Net-(J10-Pad5)"))
    (pad 5 thru_hole circle (at 4.71 7.27) (size 3.5 3.5) (drill 2.33) (layers *.Cu *.Mask)
      (net 29 "Net-(J10-Pad5)"))
    (model ${KISYS3DMOD}/Connector_USB.3dshapes/USB_B_OST_USB-B1HSxx_Horizontal.wrl
      (at (xyz 0 0 0))
      (scale (xyz 1 1 1))
      (rotate (xyz 0 0 0))
    )
  )

  (module Resistors_THT:R_Axial_DIN0309_L9.0mm_D3.2mm_P12.70mm_Horizontal (layer F.Cu) (tedit 5AE5139B) (tstamp 5D88D765)
    (at 70.104 29.972)
    (descr "Resistor, Axial_DIN0309 series, Axial, Horizontal, pin pitch=12.7mm, 0.5W = 1/2W, length*diameter=9*3.2mm^2, http://cdn-reichelt.de/documents/datenblatt/B400/1_4W%23YAG.pdf")
    (tags "Resistor Axial_DIN0309 series Axial Horizontal pin pitch 12.7mm 0.5W = 1/2W length 9mm diameter 3.2mm")
    (path /5D891DAC)
    (fp_text reference R1 (at 6.35 -2.72) (layer F.SilkS)
      (effects (font (size 1 1) (thickness 0.15)))
    )
    (fp_text value 2.2k (at 6.35 2.72) (layer F.Fab)
      (effects (font (size 1 1) (thickness 0.15)))
    )
    (fp_line (start 1.85 -1.6) (end 1.85 1.6) (layer F.Fab) (width 0.1))
    (fp_line (start 1.85 1.6) (end 10.85 1.6) (layer F.Fab) (width 0.1))
    (fp_line (start 10.85 1.6) (end 10.85 -1.6) (layer F.Fab) (width 0.1))
    (fp_line (start 10.85 -1.6) (end 1.85 -1.6) (layer F.Fab) (width 0.1))
    (fp_line (start 0 0) (end 1.85 0) (layer F.Fab) (width 0.1))
    (fp_line (start 12.7 0) (end 10.85 0) (layer F.Fab) (width 0.1))
    (fp_line (start 1.73 -1.72) (end 1.73 1.72) (layer F.SilkS) (width 0.12))
    (fp_line (start 1.73 1.72) (end 10.97 1.72) (layer F.SilkS) (width 0.12))
    (fp_line (start 10.97 1.72) (end 10.97 -1.72) (layer F.SilkS) (width 0.12))
    (fp_line (start 10.97 -1.72) (end 1.73 -1.72) (layer F.SilkS) (width 0.12))
    (fp_line (start 1.04 0) (end 1.73 0) (layer F.SilkS) (width 0.12))
    (fp_line (start 11.66 0) (end 10.97 0) (layer F.SilkS) (width 0.12))
    (fp_line (start -1.05 -1.85) (end -1.05 1.85) (layer F.CrtYd) (width 0.05))
    (fp_line (start -1.05 1.85) (end 13.75 1.85) (layer F.CrtYd) (width 0.05))
    (fp_line (start 13.75 1.85) (end 13.75 -1.85) (layer F.CrtYd) (width 0.05))
    (fp_line (start 13.75 -1.85) (end -1.05 -1.85) (layer F.CrtYd) (width 0.05))
    (fp_text user %R (at 6.35 0) (layer F.Fab)
      (effects (font (size 1 1) (thickness 0.15)))
    )
    (pad 1 thru_hole circle (at 0 0) (size 1.6 1.6) (drill 0.8) (layers *.Cu *.Mask)
      (net 5 D-))
    (pad 2 thru_hole oval (at 12.7 0) (size 1.6 1.6) (drill 0.8) (layers *.Cu *.Mask)
      (net 4 VCC))
    (model ${KISYS3DMOD}/Resistor_THT.3dshapes/R_Axial_DIN0309_L9.0mm_D3.2mm_P12.70mm_Horizontal.wrl
      (at (xyz 0 0 0))
      (scale (xyz 1 1 1))
      (rotate (xyz 0 0 0))
    )
  )

  (module Housings_DIP:DIP-28_W7.62mm (layer F.Cu) (tedit 5A02E8C5) (tstamp 5D88C16C)
    (at 80.5688 50.0888)
    (descr "28-lead though-hole mounted DIP package, row spacing 7.62 mm (300 mils)")
    (tags "THT DIP DIL PDIP 2.54mm 7.62mm 300mil")
    (path /5D888701)
    (fp_text reference U1 (at 3.81 -2.33) (layer F.SilkS)
      (effects (font (size 1 1) (thickness 0.15)))
    )
    (fp_text value ATmega328-PU (at 3.81 35.35) (layer F.Fab)
      (effects (font (size 1 1) (thickness 0.15)))
    )
    (fp_arc (start 3.81 -1.33) (end 2.81 -1.33) (angle -180) (layer F.SilkS) (width 0.12))
    (fp_line (start 1.635 -1.27) (end 6.985 -1.27) (layer F.Fab) (width 0.1))
    (fp_line (start 6.985 -1.27) (end 6.985 34.29) (layer F.Fab) (width 0.1))
    (fp_line (start 6.985 34.29) (end 0.635 34.29) (layer F.Fab) (width 0.1))
    (fp_line (start 0.635 34.29) (end 0.635 -0.27) (layer F.Fab) (width 0.1))
    (fp_line (start 0.635 -0.27) (end 1.635 -1.27) (layer F.Fab) (width 0.1))
    (fp_line (start 2.81 -1.33) (end 1.16 -1.33) (layer F.SilkS) (width 0.12))
    (fp_line (start 1.16 -1.33) (end 1.16 34.35) (layer F.SilkS) (width 0.12))
    (fp_line (start 1.16 34.35) (end 6.46 34.35) (layer F.SilkS) (width 0.12))
    (fp_line (start 6.46 34.35) (end 6.46 -1.33) (layer F.SilkS) (width 0.12))
    (fp_line (start 6.46 -1.33) (end 4.81 -1.33) (layer F.SilkS) (width 0.12))
    (fp_line (start -1.1 -1.55) (end -1.1 34.55) (layer F.CrtYd) (width 0.05))
    (fp_line (start -1.1 34.55) (end 8.7 34.55) (layer F.CrtYd) (width 0.05))
    (fp_line (start 8.7 34.55) (end 8.7 -1.55) (layer F.CrtYd) (width 0.05))
    (fp_line (start 8.7 -1.55) (end -1.1 -1.55) (layer F.CrtYd) (width 0.05))
    (fp_text user %R (at 3.81 16.51) (layer F.Fab)
      (effects (font (size 1 1) (thickness 0.15)))
    )
    (pad 1 thru_hole rect (at 0 0) (size 1.6 1.6) (drill 0.8) (layers *.Cu *.Mask)
      (net 11 RST))
    (pad 15 thru_hole oval (at 7.62 33.02) (size 1.6 1.6) (drill 0.8) (layers *.Cu *.Mask)
      (net 13 "Net-(J3-Pad2)"))
    (pad 2 thru_hole oval (at 0 2.54) (size 1.6 1.6) (drill 0.8) (layers *.Cu *.Mask)
      (net 21 "Net-(J5-Pad2)"))
    (pad 16 thru_hole oval (at 7.62 30.48) (size 1.6 1.6) (drill 0.8) (layers *.Cu *.Mask)
      (net 12 "Net-(J3-Pad1)"))
    (pad 3 thru_hole oval (at 0 5.08) (size 1.6 1.6) (drill 0.8) (layers *.Cu *.Mask)
      (net 22 "Net-(J5-Pad1)"))
    (pad 17 thru_hole oval (at 7.62 27.94) (size 1.6 1.6) (drill 0.8) (layers *.Cu *.Mask)
      (net 10 MOSI))
    (pad 4 thru_hole oval (at 0 7.62) (size 1.6 1.6) (drill 0.8) (layers *.Cu *.Mask)
      (net 31 >D-))
    (pad 18 thru_hole oval (at 7.62 25.4) (size 1.6 1.6) (drill 0.8) (layers *.Cu *.Mask)
      (net 8 MISO))
    (pad 5 thru_hole oval (at 0 10.16) (size 1.6 1.6) (drill 0.8) (layers *.Cu *.Mask)
      (net 23 int1))
    (pad 19 thru_hole oval (at 7.62 22.86) (size 1.6 1.6) (drill 0.8) (layers *.Cu *.Mask)
      (net 9 SCK))
    (pad 6 thru_hole oval (at 0 12.7) (size 1.6 1.6) (drill 0.8) (layers *.Cu *.Mask)
      (net 30 >D+))
    (pad 20 thru_hole oval (at 7.62 20.32) (size 1.6 1.6) (drill 0.8) (layers *.Cu *.Mask)
      (net 4 VCC))
    (pad 7 thru_hole oval (at 0 15.24) (size 1.6 1.6) (drill 0.8) (layers *.Cu *.Mask)
      (net 4 VCC))
    (pad 21 thru_hole oval (at 7.62 17.78) (size 1.6 1.6) (drill 0.8) (layers *.Cu *.Mask)
      (net 7 "Net-(J1-Pad1)"))
    (pad 8 thru_hole oval (at 0 17.78) (size 1.6 1.6) (drill 0.8) (layers *.Cu *.Mask)
      (net 1 GND))
    (pad 22 thru_hole oval (at 7.62 15.24) (size 1.6 1.6) (drill 0.8) (layers *.Cu *.Mask)
      (net 1 GND))
    (pad 9 thru_hole oval (at 0 20.32) (size 1.6 1.6) (drill 0.8) (layers *.Cu *.Mask)
      (net 3 "Net-(C2-Pad1)"))
    (pad 23 thru_hole oval (at 7.62 12.7) (size 1.6 1.6) (drill 0.8) (layers *.Cu *.Mask)
      (net 15 "Net-(J4-Pad6)"))
    (pad 10 thru_hole oval (at 0 22.86) (size 1.6 1.6) (drill 0.8) (layers *.Cu *.Mask)
      (net 2 "Net-(C1-Pad1)"))
    (pad 24 thru_hole oval (at 7.62 10.16) (size 1.6 1.6) (drill 0.8) (layers *.Cu *.Mask)
      (net 16 "Net-(J4-Pad5)"))
    (pad 11 thru_hole oval (at 0 25.4) (size 1.6 1.6) (drill 0.8) (layers *.Cu *.Mask)
      (net 24 "Net-(J7-Pad3)"))
    (pad 25 thru_hole oval (at 7.62 7.62) (size 1.6 1.6) (drill 0.8) (layers *.Cu *.Mask)
      (net 17 "Net-(J4-Pad4)"))
    (pad 12 thru_hole oval (at 0 27.94) (size 1.6 1.6) (drill 0.8) (layers *.Cu *.Mask)
      (net 25 "Net-(J7-Pad2)"))
    (pad 26 thru_hole oval (at 7.62 5.08) (size 1.6 1.6) (drill 0.8) (layers *.Cu *.Mask)
      (net 18 "Net-(J4-Pad3)"))
    (pad 13 thru_hole oval (at 0 30.48) (size 1.6 1.6) (drill 0.8) (layers *.Cu *.Mask)
      (net 26 "Net-(J7-Pad1)"))
    (pad 27 thru_hole oval (at 7.62 2.54) (size 1.6 1.6) (drill 0.8) (layers *.Cu *.Mask)
      (net 19 "Net-(J4-Pad2)"))
    (pad 14 thru_hole oval (at 0 33.02) (size 1.6 1.6) (drill 0.8) (layers *.Cu *.Mask)
      (net 14 "Net-(J3-Pad3)"))
    (pad 28 thru_hole oval (at 7.62 0) (size 1.6 1.6) (drill 0.8) (layers *.Cu *.Mask)
      (net 20 "Net-(J4-Pad1)"))
    (model ${KISYS3DMOD}/Package_DIP.3dshapes/DIP-28_W7.62mm.wrl
      (at (xyz 0 0 0))
      (scale (xyz 1 1 1))
      (rotate (xyz 0 0 0))
    )
  )

  (module Crystals:Crystal_HC18-U_Vertical (layer F.Cu) (tedit 5A1AD3B7) (tstamp 5D88AB6B)
    (at 75.5015 72.136 180)
    (descr "Crystal THT HC-18/U, http://5hertz.com/pdfs/04404_D.pdf")
    (tags "THT crystalHC-18/U")
    (path /5D88AAAB)
    (fp_text reference Y1 (at 2.45 -3.525) (layer F.SilkS)
      (effects (font (size 1 1) (thickness 0.15)))
    )
    (fp_text value Crystal (at 2.45 3.525) (layer F.Fab)
      (effects (font (size 1 1) (thickness 0.15)))
    )
    (fp_text user %R (at 2.45 0) (layer F.Fab)
      (effects (font (size 1 1) (thickness 0.15)))
    )
    (fp_line (start -0.675 -2.325) (end 5.575 -2.325) (layer F.Fab) (width 0.1))
    (fp_line (start -0.675 2.325) (end 5.575 2.325) (layer F.Fab) (width 0.1))
    (fp_line (start -0.55 -2) (end 5.45 -2) (layer F.Fab) (width 0.1))
    (fp_line (start -0.55 2) (end 5.45 2) (layer F.Fab) (width 0.1))
    (fp_line (start -0.675 -2.525) (end 5.575 -2.525) (layer F.SilkS) (width 0.12))
    (fp_line (start -0.675 2.525) (end 5.575 2.525) (layer F.SilkS) (width 0.12))
    (fp_line (start -3.5 -2.8) (end -3.5 2.8) (layer F.CrtYd) (width 0.05))
    (fp_line (start -3.5 2.8) (end 8.4 2.8) (layer F.CrtYd) (width 0.05))
    (fp_line (start 8.4 2.8) (end 8.4 -2.8) (layer F.CrtYd) (width 0.05))
    (fp_line (start 8.4 -2.8) (end -3.5 -2.8) (layer F.CrtYd) (width 0.05))
    (fp_arc (start -0.675 0) (end -0.675 -2.325) (angle -180) (layer F.Fab) (width 0.1))
    (fp_arc (start 5.575 0) (end 5.575 -2.325) (angle 180) (layer F.Fab) (width 0.1))
    (fp_arc (start -0.55 0) (end -0.55 -2) (angle -180) (layer F.Fab) (width 0.1))
    (fp_arc (start 5.45 0) (end 5.45 -2) (angle 180) (layer F.Fab) (width 0.1))
    (fp_arc (start -0.675 0) (end -0.675 -2.525) (angle -180) (layer F.SilkS) (width 0.12))
    (fp_arc (start 5.575 0) (end 5.575 -2.525) (angle 180) (layer F.SilkS) (width 0.12))
    (pad 1 thru_hole circle (at 0 0 180) (size 1.5 1.5) (drill 0.8) (layers *.Cu *.Mask)
      (net 2 "Net-(C1-Pad1)"))
    (pad 2 thru_hole circle (at 4.9 0 180) (size 1.5 1.5) (drill 0.8) (layers *.Cu *.Mask)
      (net 3 "Net-(C2-Pad1)"))
    (model ${KISYS3DMOD}/Crystal.3dshapes/Crystal_HC18-U_Vertical.wrl
      (at (xyz 0 0 0))
      (scale (xyz 1 1 1))
      (rotate (xyz 0 0 0))
    )
  )

  (module pin_headers:PinHeader_1x04_P2.54mm_Vertical (layer F.Cu) (tedit 59FED5CC) (tstamp 5D88B96F)
    (at 66.04 22.352)
    (descr "Through hole straight pin header, 1x04, 2.54mm pitch, single row")
    (tags "Through hole pin header THT 1x04 2.54mm single row")
    (path /5D89D8E1)
    (fp_text reference J11 (at 0 -2.33) (layer F.SilkS)
      (effects (font (size 1 1) (thickness 0.15)))
    )
    (fp_text value Conn_01x04_Male (at 0 9.95) (layer F.Fab)
      (effects (font (size 1 1) (thickness 0.15)))
    )
    (fp_line (start -0.635 -1.27) (end 1.27 -1.27) (layer F.Fab) (width 0.1))
    (fp_line (start 1.27 -1.27) (end 1.27 8.89) (layer F.Fab) (width 0.1))
    (fp_line (start 1.27 8.89) (end -1.27 8.89) (layer F.Fab) (width 0.1))
    (fp_line (start -1.27 8.89) (end -1.27 -0.635) (layer F.Fab) (width 0.1))
    (fp_line (start -1.27 -0.635) (end -0.635 -1.27) (layer F.Fab) (width 0.1))
    (fp_line (start -1.33 8.95) (end 1.33 8.95) (layer F.SilkS) (width 0.12))
    (fp_line (start -1.33 1.27) (end -1.33 8.95) (layer F.SilkS) (width 0.12))
    (fp_line (start 1.33 1.27) (end 1.33 8.95) (layer F.SilkS) (width 0.12))
    (fp_line (start -1.33 1.27) (end 1.33 1.27) (layer F.SilkS) (width 0.12))
    (fp_line (start -1.33 0) (end -1.33 -1.33) (layer F.SilkS) (width 0.12))
    (fp_line (start -1.33 -1.33) (end 0 -1.33) (layer F.SilkS) (width 0.12))
    (fp_line (start -1.8 -1.8) (end -1.8 9.4) (layer F.CrtYd) (width 0.05))
    (fp_line (start -1.8 9.4) (end 1.8 9.4) (layer F.CrtYd) (width 0.05))
    (fp_line (start 1.8 9.4) (end 1.8 -1.8) (layer F.CrtYd) (width 0.05))
    (fp_line (start 1.8 -1.8) (end -1.8 -1.8) (layer F.CrtYd) (width 0.05))
    (fp_text user %R (at 0 3.81 90) (layer F.Fab)
      (effects (font (size 1 1) (thickness 0.15)))
    )
    (pad 1 thru_hole rect (at 0 0) (size 1.7 1.7) (drill 1) (layers *.Cu *.Mask)
      (net 1 GND))
    (pad 2 thru_hole oval (at 0 2.54) (size 1.7 1.7) (drill 1) (layers *.Cu *.Mask)
      (net 6 D+))
    (pad 3 thru_hole oval (at 0 5.08) (size 1.7 1.7) (drill 1) (layers *.Cu *.Mask)
      (net 5 D-))
    (pad 4 thru_hole oval (at 0 7.62) (size 1.7 1.7) (drill 1) (layers *.Cu *.Mask)
      (net 4 VCC))
    (model ${KISYS3DMOD}/Connector_PinHeader_2.54mm.3dshapes/PinHeader_1x04_P2.54mm_Vertical.wrl
      (at (xyz 0 0 0))
      (scale (xyz 1 1 1))
      (rotate (xyz 0 0 0))
    )
  )

  (module pin_headers:PinHeader_1x04_P2.54mm_Vertical (layer F.Cu) (tedit 59FED5CC) (tstamp 5D88BA7A)
    (at 69.2785 60.706 180)
    (descr "Through hole straight pin header, 1x04, 2.54mm pitch, single row")
    (tags "Through hole pin header THT 1x04 2.54mm single row")
    (path /5D8B0670)
    (fp_text reference J12 (at 0 -2.33) (layer F.SilkS)
      (effects (font (size 1 1) (thickness 0.15)))
    )
    (fp_text value Conn_01x04_Male (at 0 9.95) (layer F.Fab)
      (effects (font (size 1 1) (thickness 0.15)))
    )
    (fp_line (start -0.635 -1.27) (end 1.27 -1.27) (layer F.Fab) (width 0.1))
    (fp_line (start 1.27 -1.27) (end 1.27 8.89) (layer F.Fab) (width 0.1))
    (fp_line (start 1.27 8.89) (end -1.27 8.89) (layer F.Fab) (width 0.1))
    (fp_line (start -1.27 8.89) (end -1.27 -0.635) (layer F.Fab) (width 0.1))
    (fp_line (start -1.27 -0.635) (end -0.635 -1.27) (layer F.Fab) (width 0.1))
    (fp_line (start -1.33 8.95) (end 1.33 8.95) (layer F.SilkS) (width 0.12))
    (fp_line (start -1.33 1.27) (end -1.33 8.95) (layer F.SilkS) (width 0.12))
    (fp_line (start 1.33 1.27) (end 1.33 8.95) (layer F.SilkS) (width 0.12))
    (fp_line (start -1.33 1.27) (end 1.33 1.27) (layer F.SilkS) (width 0.12))
    (fp_line (start -1.33 0) (end -1.33 -1.33) (layer F.SilkS) (width 0.12))
    (fp_line (start -1.33 -1.33) (end 0 -1.33) (layer F.SilkS) (width 0.12))
    (fp_line (start -1.8 -1.8) (end -1.8 9.4) (layer F.CrtYd) (width 0.05))
    (fp_line (start -1.8 9.4) (end 1.8 9.4) (layer F.CrtYd) (width 0.05))
    (fp_line (start 1.8 9.4) (end 1.8 -1.8) (layer F.CrtYd) (width 0.05))
    (fp_line (start 1.8 -1.8) (end -1.8 -1.8) (layer F.CrtYd) (width 0.05))
    (fp_text user %R (at 0 3.81 90) (layer F.Fab)
      (effects (font (size 1 1) (thickness 0.15)))
    )
    (pad 1 thru_hole rect (at 0 0 180) (size 1.7 1.7) (drill 1) (layers *.Cu *.Mask)
      (net 1 GND))
    (pad 2 thru_hole oval (at 0 2.54 180) (size 1.7 1.7) (drill 1) (layers *.Cu *.Mask)
      (net 30 >D+))
    (pad 3 thru_hole oval (at 0 5.08 180) (size 1.7 1.7) (drill 1) (layers *.Cu *.Mask)
      (net 31 >D-))
    (pad 4 thru_hole oval (at 0 7.62 180) (size 1.7 1.7) (drill 1) (layers *.Cu *.Mask)
      (net 4 VCC))
    (model ${KISYS3DMOD}/Connector_PinHeader_2.54mm.3dshapes/PinHeader_1x04_P2.54mm_Vertical.wrl
      (at (xyz 0 0 0))
      (scale (xyz 1 1 1))
      (rotate (xyz 0 0 0))
    )
  )

  (module pin_headers:PinHeader_1x02_P2.54mm_Vertical (layer F.Cu) (tedit 59FED5CC) (tstamp 5D88C51D)
    (at 66.9925 67.7545 180)
    (descr "Through hole straight pin header, 1x02, 2.54mm pitch, single row")
    (tags "Through hole pin header THT 1x02 2.54mm single row")
    (path /5D8E0BA7)
    (fp_text reference J13 (at 0 -2.33) (layer F.SilkS)
      (effects (font (size 1 1) (thickness 0.15)))
    )
    (fp_text value Conn_01x02_Male (at 0 4.87) (layer F.Fab)
      (effects (font (size 1 1) (thickness 0.15)))
    )
    (fp_line (start -0.635 -1.27) (end 1.27 -1.27) (layer F.Fab) (width 0.1))
    (fp_line (start 1.27 -1.27) (end 1.27 3.81) (layer F.Fab) (width 0.1))
    (fp_line (start 1.27 3.81) (end -1.27 3.81) (layer F.Fab) (width 0.1))
    (fp_line (start -1.27 3.81) (end -1.27 -0.635) (layer F.Fab) (width 0.1))
    (fp_line (start -1.27 -0.635) (end -0.635 -1.27) (layer F.Fab) (width 0.1))
    (fp_line (start -1.33 3.87) (end 1.33 3.87) (layer F.SilkS) (width 0.12))
    (fp_line (start -1.33 1.27) (end -1.33 3.87) (layer F.SilkS) (width 0.12))
    (fp_line (start 1.33 1.27) (end 1.33 3.87) (layer F.SilkS) (width 0.12))
    (fp_line (start -1.33 1.27) (end 1.33 1.27) (layer F.SilkS) (width 0.12))
    (fp_line (start -1.33 0) (end -1.33 -1.33) (layer F.SilkS) (width 0.12))
    (fp_line (start -1.33 -1.33) (end 0 -1.33) (layer F.SilkS) (width 0.12))
    (fp_line (start -1.8 -1.8) (end -1.8 4.35) (layer F.CrtYd) (width 0.05))
    (fp_line (start -1.8 4.35) (end 1.8 4.35) (layer F.CrtYd) (width 0.05))
    (fp_line (start 1.8 4.35) (end 1.8 -1.8) (layer F.CrtYd) (width 0.05))
    (fp_line (start 1.8 -1.8) (end -1.8 -1.8) (layer F.CrtYd) (width 0.05))
    (fp_text user %R (at 0 1.27 90) (layer F.Fab)
      (effects (font (size 1 1) (thickness 0.15)))
    )
    (pad 1 thru_hole rect (at 0 0 180) (size 1.7 1.7) (drill 1) (layers *.Cu *.Mask)
      (net 1 GND))
    (pad 2 thru_hole oval (at 0 2.54 180) (size 1.7 1.7) (drill 1) (layers *.Cu *.Mask)
      (net 4 VCC))
    (model ${KISYS3DMOD}/Connector_PinHeader_2.54mm.3dshapes/PinHeader_1x02_P2.54mm_Vertical.wrl
      (at (xyz 0 0 0))
      (scale (xyz 1 1 1))
      (rotate (xyz 0 0 0))
    )
  )

  (module Resistors_THT:R_Axial_DIN0309_L9.0mm_D3.2mm_P12.70mm_Horizontal (layer F.Cu) (tedit 5AE5139B) (tstamp 5D88C55D)
    (at 97.79 51.3715 270)
    (descr "Resistor, Axial_DIN0309 series, Axial, Horizontal, pin pitch=12.7mm, 0.5W = 1/2W, length*diameter=9*3.2mm^2, http://cdn-reichelt.de/documents/datenblatt/B400/1_4W%23YAG.pdf")
    (tags "Resistor Axial_DIN0309 series Axial Horizontal pin pitch 12.7mm 0.5W = 1/2W length 9mm diameter 3.2mm")
    (path /5D8D5C27)
    (fp_text reference R4 (at 6.35 -2.72 90) (layer F.SilkS)
      (effects (font (size 1 1) (thickness 0.15)))
    )
    (fp_text value 10k (at 6.35 2.72 90) (layer F.Fab)
      (effects (font (size 1 1) (thickness 0.15)))
    )
    (fp_line (start 1.85 -1.6) (end 1.85 1.6) (layer F.Fab) (width 0.1))
    (fp_line (start 1.85 1.6) (end 10.85 1.6) (layer F.Fab) (width 0.1))
    (fp_line (start 10.85 1.6) (end 10.85 -1.6) (layer F.Fab) (width 0.1))
    (fp_line (start 10.85 -1.6) (end 1.85 -1.6) (layer F.Fab) (width 0.1))
    (fp_line (start 0 0) (end 1.85 0) (layer F.Fab) (width 0.1))
    (fp_line (start 12.7 0) (end 10.85 0) (layer F.Fab) (width 0.1))
    (fp_line (start 1.73 -1.72) (end 1.73 1.72) (layer F.SilkS) (width 0.12))
    (fp_line (start 1.73 1.72) (end 10.97 1.72) (layer F.SilkS) (width 0.12))
    (fp_line (start 10.97 1.72) (end 10.97 -1.72) (layer F.SilkS) (width 0.12))
    (fp_line (start 10.97 -1.72) (end 1.73 -1.72) (layer F.SilkS) (width 0.12))
    (fp_line (start 1.04 0) (end 1.73 0) (layer F.SilkS) (width 0.12))
    (fp_line (start 11.66 0) (end 10.97 0) (layer F.SilkS) (width 0.12))
    (fp_line (start -1.05 -1.85) (end -1.05 1.85) (layer F.CrtYd) (width 0.05))
    (fp_line (start -1.05 1.85) (end 13.75 1.85) (layer F.CrtYd) (width 0.05))
    (fp_line (start 13.75 1.85) (end 13.75 -1.85) (layer F.CrtYd) (width 0.05))
    (fp_line (start 13.75 -1.85) (end -1.05 -1.85) (layer F.CrtYd) (width 0.05))
    (fp_text user %R (at 6.35 0 90) (layer F.Fab)
      (effects (font (size 1 1) (thickness 0.15)))
    )
    (pad 1 thru_hole circle (at 0 0 270) (size 1.6 1.6) (drill 0.8) (layers *.Cu *.Mask)
      (net 11 RST))
    (pad 2 thru_hole oval (at 12.7 0 270) (size 1.6 1.6) (drill 0.8) (layers *.Cu *.Mask)
      (net 4 VCC))
    (model ${KISYS3DMOD}/Resistor_THT.3dshapes/R_Axial_DIN0309_L9.0mm_D3.2mm_P12.70mm_Horizontal.wrl
      (at (xyz 0 0 0))
      (scale (xyz 1 1 1))
      (rotate (xyz 0 0 0))
    )
  )

  (module LEDs:LED_D3.0mm (layer F.Cu) (tedit 587A3A7B) (tstamp 5D88D446)
    (at 103.632 52.832)
    (descr "LED, diameter 3.0mm, 2 pins")
    (tags "LED diameter 3.0mm 2 pins")
    (path /5D8EF9E6)
    (fp_text reference D3 (at 1.27 -2.96) (layer F.SilkS)
      (effects (font (size 1 1) (thickness 0.15)))
    )
    (fp_text value LED (at 1.27 2.96) (layer F.Fab)
      (effects (font (size 1 1) (thickness 0.15)))
    )
    (fp_arc (start 1.27 0) (end -0.23 -1.16619) (angle 284.3) (layer F.Fab) (width 0.1))
    (fp_arc (start 1.27 0) (end -0.29 -1.235516) (angle 108.8) (layer F.SilkS) (width 0.12))
    (fp_arc (start 1.27 0) (end -0.29 1.235516) (angle -108.8) (layer F.SilkS) (width 0.12))
    (fp_arc (start 1.27 0) (end 0.229039 -1.08) (angle 87.9) (layer F.SilkS) (width 0.12))
    (fp_arc (start 1.27 0) (end 0.229039 1.08) (angle -87.9) (layer F.SilkS) (width 0.12))
    (fp_circle (center 1.27 0) (end 2.77 0) (layer F.Fab) (width 0.1))
    (fp_line (start -0.23 -1.16619) (end -0.23 1.16619) (layer F.Fab) (width 0.1))
    (fp_line (start -0.29 -1.236) (end -0.29 -1.08) (layer F.SilkS) (width 0.12))
    (fp_line (start -0.29 1.08) (end -0.29 1.236) (layer F.SilkS) (width 0.12))
    (fp_line (start -1.15 -2.25) (end -1.15 2.25) (layer F.CrtYd) (width 0.05))
    (fp_line (start -1.15 2.25) (end 3.7 2.25) (layer F.CrtYd) (width 0.05))
    (fp_line (start 3.7 2.25) (end 3.7 -2.25) (layer F.CrtYd) (width 0.05))
    (fp_line (start 3.7 -2.25) (end -1.15 -2.25) (layer F.CrtYd) (width 0.05))
    (pad 1 thru_hole rect (at 0 0) (size 1.8 1.8) (drill 0.9) (layers *.Cu *.Mask)
      (net 1 GND))
    (pad 2 thru_hole circle (at 2.54 0) (size 1.8 1.8) (drill 0.9) (layers *.Cu *.Mask)
      (net 32 "Net-(D3-Pad2)"))
    (model ${KISYS3DMOD}/LED_THT.3dshapes/LED_D3.0mm.wrl
      (at (xyz 0 0 0))
      (scale (xyz 1 1 1))
      (rotate (xyz 0 0 0))
    )
  )

  (module Resistors_THT:R_Axial_DIN0309_L9.0mm_D3.2mm_P12.70mm_Horizontal (layer F.Cu) (tedit 5AE5139B) (tstamp 5D88D45D)
    (at 106.172 69.596 90)
    (descr "Resistor, Axial_DIN0309 series, Axial, Horizontal, pin pitch=12.7mm, 0.5W = 1/2W, length*diameter=9*3.2mm^2, http://cdn-reichelt.de/documents/datenblatt/B400/1_4W%23YAG.pdf")
    (tags "Resistor Axial_DIN0309 series Axial Horizontal pin pitch 12.7mm 0.5W = 1/2W length 9mm diameter 3.2mm")
    (path /5D8F161A)
    (fp_text reference R5 (at 6.35 -2.72 90) (layer F.SilkS)
      (effects (font (size 1 1) (thickness 0.15)))
    )
    (fp_text value 220R (at 6.35 2.72 90) (layer F.Fab)
      (effects (font (size 1 1) (thickness 0.15)))
    )
    (fp_line (start 1.85 -1.6) (end 1.85 1.6) (layer F.Fab) (width 0.1))
    (fp_line (start 1.85 1.6) (end 10.85 1.6) (layer F.Fab) (width 0.1))
    (fp_line (start 10.85 1.6) (end 10.85 -1.6) (layer F.Fab) (width 0.1))
    (fp_line (start 10.85 -1.6) (end 1.85 -1.6) (layer F.Fab) (width 0.1))
    (fp_line (start 0 0) (end 1.85 0) (layer F.Fab) (width 0.1))
    (fp_line (start 12.7 0) (end 10.85 0) (layer F.Fab) (width 0.1))
    (fp_line (start 1.73 -1.72) (end 1.73 1.72) (layer F.SilkS) (width 0.12))
    (fp_line (start 1.73 1.72) (end 10.97 1.72) (layer F.SilkS) (width 0.12))
    (fp_line (start 10.97 1.72) (end 10.97 -1.72) (layer F.SilkS) (width 0.12))
    (fp_line (start 10.97 -1.72) (end 1.73 -1.72) (layer F.SilkS) (width 0.12))
    (fp_line (start 1.04 0) (end 1.73 0) (layer F.SilkS) (width 0.12))
    (fp_line (start 11.66 0) (end 10.97 0) (layer F.SilkS) (width 0.12))
    (fp_line (start -1.05 -1.85) (end -1.05 1.85) (layer F.CrtYd) (width 0.05))
    (fp_line (start -1.05 1.85) (end 13.75 1.85) (layer F.CrtYd) (width 0.05))
    (fp_line (start 13.75 1.85) (end 13.75 -1.85) (layer F.CrtYd) (width 0.05))
    (fp_line (start 13.75 -1.85) (end -1.05 -1.85) (layer F.CrtYd) (width 0.05))
    (fp_text user %R (at 6.35 0 90) (layer F.Fab)
      (effects (font (size 1 1) (thickness 0.15)))
    )
    (pad 1 thru_hole circle (at 0 0 90) (size 1.6 1.6) (drill 0.8) (layers *.Cu *.Mask)
      (net 4 VCC))
    (pad 2 thru_hole oval (at 12.7 0 90) (size 1.6 1.6) (drill 0.8) (layers *.Cu *.Mask)
      (net 32 "Net-(D3-Pad2)"))
    (model ${KISYS3DMOD}/Resistor_THT.3dshapes/R_Axial_DIN0309_L9.0mm_D3.2mm_P12.70mm_Horizontal.wrl
      (at (xyz 0 0 0))
      (scale (xyz 1 1 1))
      (rotate (xyz 0 0 0))
    )
  )

  (module Resistors_THT:R_Axial_DIN0309_L9.0mm_D3.2mm_P12.70mm_Horizontal (layer F.Cu) (tedit 5AE5139B) (tstamp 5D88D64B)
    (at 82.804 33.528 180)
    (descr "Resistor, Axial_DIN0309 series, Axial, Horizontal, pin pitch=12.7mm, 0.5W = 1/2W, length*diameter=9*3.2mm^2, http://cdn-reichelt.de/documents/datenblatt/B400/1_4W%23YAG.pdf")
    (tags "Resistor Axial_DIN0309 series Axial Horizontal pin pitch 12.7mm 0.5W = 1/2W length 9mm diameter 3.2mm")
    (path /5D8AE5C9)
    (fp_text reference R2 (at 6.35 -2.72) (layer F.SilkS)
      (effects (font (size 1 1) (thickness 0.15)))
    )
    (fp_text value 68R (at 6.35 2.72) (layer F.Fab)
      (effects (font (size 1 1) (thickness 0.15)))
    )
    (fp_line (start 1.85 -1.6) (end 1.85 1.6) (layer F.Fab) (width 0.1))
    (fp_line (start 1.85 1.6) (end 10.85 1.6) (layer F.Fab) (width 0.1))
    (fp_line (start 10.85 1.6) (end 10.85 -1.6) (layer F.Fab) (width 0.1))
    (fp_line (start 10.85 -1.6) (end 1.85 -1.6) (layer F.Fab) (width 0.1))
    (fp_line (start 0 0) (end 1.85 0) (layer F.Fab) (width 0.1))
    (fp_line (start 12.7 0) (end 10.85 0) (layer F.Fab) (width 0.1))
    (fp_line (start 1.73 -1.72) (end 1.73 1.72) (layer F.SilkS) (width 0.12))
    (fp_line (start 1.73 1.72) (end 10.97 1.72) (layer F.SilkS) (width 0.12))
    (fp_line (start 10.97 1.72) (end 10.97 -1.72) (layer F.SilkS) (width 0.12))
    (fp_line (start 10.97 -1.72) (end 1.73 -1.72) (layer F.SilkS) (width 0.12))
    (fp_line (start 1.04 0) (end 1.73 0) (layer F.SilkS) (width 0.12))
    (fp_line (start 11.66 0) (end 10.97 0) (layer F.SilkS) (width 0.12))
    (fp_line (start -1.05 -1.85) (end -1.05 1.85) (layer F.CrtYd) (width 0.05))
    (fp_line (start -1.05 1.85) (end 13.75 1.85) (layer F.CrtYd) (width 0.05))
    (fp_line (start 13.75 1.85) (end 13.75 -1.85) (layer F.CrtYd) (width 0.05))
    (fp_line (start 13.75 -1.85) (end -1.05 -1.85) (layer F.CrtYd) (width 0.05))
    (fp_text user %R (at 6.35 0) (layer F.Fab)
      (effects (font (size 1 1) (thickness 0.15)))
    )
    (pad 1 thru_hole circle (at 0 0 180) (size 1.6 1.6) (drill 0.8) (layers *.Cu *.Mask)
      (net 27 "Net-(J10-Pad2)"))
    (pad 2 thru_hole oval (at 12.7 0 180) (size 1.6 1.6) (drill 0.8) (layers *.Cu *.Mask)
      (net 5 D-))
    (model ${KISYS3DMOD}/Resistor_THT.3dshapes/R_Axial_DIN0309_L9.0mm_D3.2mm_P12.70mm_Horizontal.wrl
      (at (xyz 0 0 0))
      (scale (xyz 1 1 1))
      (rotate (xyz 0 0 0))
    )
  )

  (module Resistors_THT:R_Axial_DIN0309_L9.0mm_D3.2mm_P12.70mm_Horizontal (layer F.Cu) (tedit 5AE5139B) (tstamp 5D88D605)
    (at 70.104 37.084)
    (descr "Resistor, Axial_DIN0309 series, Axial, Horizontal, pin pitch=12.7mm, 0.5W = 1/2W, length*diameter=9*3.2mm^2, http://cdn-reichelt.de/documents/datenblatt/B400/1_4W%23YAG.pdf")
    (tags "Resistor Axial_DIN0309 series Axial Horizontal pin pitch 12.7mm 0.5W = 1/2W length 9mm diameter 3.2mm")
    (path /5D891896)
    (fp_text reference R3 (at 6.35 -2.72) (layer F.SilkS)
      (effects (font (size 1 1) (thickness 0.15)))
    )
    (fp_text value 68R (at 6.35 2.72) (layer F.Fab)
      (effects (font (size 1 1) (thickness 0.15)))
    )
    (fp_text user %R (at 6.35 0) (layer F.Fab)
      (effects (font (size 1 1) (thickness 0.15)))
    )
    (fp_line (start 13.75 -1.85) (end -1.05 -1.85) (layer F.CrtYd) (width 0.05))
    (fp_line (start 13.75 1.85) (end 13.75 -1.85) (layer F.CrtYd) (width 0.05))
    (fp_line (start -1.05 1.85) (end 13.75 1.85) (layer F.CrtYd) (width 0.05))
    (fp_line (start -1.05 -1.85) (end -1.05 1.85) (layer F.CrtYd) (width 0.05))
    (fp_line (start 11.66 0) (end 10.97 0) (layer F.SilkS) (width 0.12))
    (fp_line (start 1.04 0) (end 1.73 0) (layer F.SilkS) (width 0.12))
    (fp_line (start 10.97 -1.72) (end 1.73 -1.72) (layer F.SilkS) (width 0.12))
    (fp_line (start 10.97 1.72) (end 10.97 -1.72) (layer F.SilkS) (width 0.12))
    (fp_line (start 1.73 1.72) (end 10.97 1.72) (layer F.SilkS) (width 0.12))
    (fp_line (start 1.73 -1.72) (end 1.73 1.72) (layer F.SilkS) (width 0.12))
    (fp_line (start 12.7 0) (end 10.85 0) (layer F.Fab) (width 0.1))
    (fp_line (start 0 0) (end 1.85 0) (layer F.Fab) (width 0.1))
    (fp_line (start 10.85 -1.6) (end 1.85 -1.6) (layer F.Fab) (width 0.1))
    (fp_line (start 10.85 1.6) (end 10.85 -1.6) (layer F.Fab) (width 0.1))
    (fp_line (start 1.85 1.6) (end 10.85 1.6) (layer F.Fab) (width 0.1))
    (fp_line (start 1.85 -1.6) (end 1.85 1.6) (layer F.Fab) (width 0.1))
    (pad 2 thru_hole oval (at 12.7 0) (size 1.6 1.6) (drill 0.8) (layers *.Cu *.Mask)
      (net 28 "Net-(J10-Pad3)"))
    (pad 1 thru_hole circle (at 0 0) (size 1.6 1.6) (drill 0.8) (layers *.Cu *.Mask)
      (net 6 D+))
    (model ${KISYS3DMOD}/Resistor_THT.3dshapes/R_Axial_DIN0309_L9.0mm_D3.2mm_P12.70mm_Horizontal.wrl
      (at (xyz 0 0 0))
      (scale (xyz 1 1 1))
      (rotate (xyz 0 0 0))
    )
  )

  (gr_line (start 70.104 40.132) (end 70.612 40.132) (layer F.Fab) (width 0.15))
  (gr_line (start 64.008 40.132) (end 70.104 40.132) (layer F.Fab) (width 0.15) (tstamp 5D88D88B))
  (gr_line (start 64.008 19.304) (end 64.008 40.132) (layer F.Fab) (width 0.15))
  (gr_line (start 93.98 19.304) (end 64.008 19.304) (layer F.Fab) (width 0.15))
  (gr_line (start 93.98 40.132) (end 93.98 19.304) (layer F.Fab) (width 0.15))
  (gr_line (start 70.104 40.132) (end 93.98 40.132) (layer F.Fab) (width 0.15))
  (gr_line (start 107.696 91.44) (end 107.696 41.656) (layer F.Fab) (width 0.15))
  (gr_line (start 109.22 91.44) (end 64.008 91.44) (layer F.Fab) (width 0.15))
  (gr_line (start 64.008 63.5) (end 64.008 92.964) (layer F.Fab) (width 0.15) (tstamp 5D88C6EC))
  (gr_line (start 109.22 92.964) (end 64.008 92.964) (layer F.Fab) (width 0.15))
  (gr_line (start 109.22 41.656) (end 109.22 92.964) (layer F.Fab) (width 0.15))
  (gr_line (start 98.552 41.656) (end 109.22 41.656) (layer F.Fab) (width 0.15))
  (gr_line (start 64.008 41.656) (end 98.552 41.656) (layer F.Fab) (width 0.15))
  (gr_line (start 64.008 63.5) (end 64.008 41.656) (layer F.Fab) (width 0.15))

  (segment (start 70.699 76.073) (end 73.065 76.073) (width 1.27) (layer B.Cu) (net 1))
  (segment (start 70.699 76.436802) (end 69.094302 78.0415) (width 1.27) (layer B.Cu) (net 1))
  (segment (start 70.699 76.073) (end 70.699 76.436802) (width 1.27) (layer B.Cu) (net 1))
  (segment (start 67.303698 78.0415) (end 65.659 76.396802) (width 1.27) (layer B.Cu) (net 1))
  (segment (start 66.42899 72.46901) (end 70.891501 68.006499) (width 1.27) (layer B.Cu) (net 1))
  (segment (start 66.42899 74.22351) (end 66.42899 72.46901) (width 1.27) (layer B.Cu) (net 1))
  (segment (start 65.659 74.9935) (end 66.42899 74.22351) (width 1.27) (layer B.Cu) (net 1))
  (segment (start 70.891501 68.006499) (end 71.6915 67.2065) (width 1.27) (layer B.Cu) (net 1))
  (segment (start 65.659 76.396802) (end 65.659 74.9935) (width 1.27) (layer B.Cu) (net 1))
  (segment (start 79.9065 67.2065) (end 80.5688 67.8688) (width 1.27) (layer B.Cu) (net 1))
  (segment (start 71.6915 67.2065) (end 79.9065 67.2065) (width 1.27) (layer B.Cu) (net 1))
  (segment (start 93.9165 65.853919) (end 93.9165 67.056) (width 1.27) (layer B.Cu) (net 1))
  (segment (start 93.13358 65.070999) (end 93.9165 65.853919) (width 1.27) (layer B.Cu) (net 1))
  (segment (start 89.618499 65.070999) (end 93.13358 65.070999) (width 1.27) (layer B.Cu) (net 1))
  (segment (start 89.360698 65.3288) (end 89.618499 65.070999) (width 1.27) (layer B.Cu) (net 1))
  (segment (start 88.1888 65.3288) (end 89.360698 65.3288) (width 1.27) (layer B.Cu) (net 1))
  (segment (start 67.1585 60.706) (end 66.548 60.0955) (width 1.27) (layer B.Cu) (net 1))
  (segment (start 69.2785 60.706) (end 67.1585 60.706) (width 1.27) (layer B.Cu) (net 1))
  (segment (start 71.247 48.768) (end 76.327 43.688) (width 1.27) (layer B.Cu) (net 1))
  (segment (start 71.247 49.4665) (end 71.247 48.768) (width 1.27) (layer B.Cu) (net 1))
  (segment (start 67.5405 67.2065) (end 66.9925 67.7545) (width 1.27) (layer B.Cu) (net 1))
  (segment (start 71.6915 67.2065) (end 67.5405 67.2065) (width 1.27) (layer B.Cu) (net 1))
  (segment (start 66.548 60.0955) (end 66.548 60.8965) (width 1.27) (layer B.Cu) (net 1))
  (segment (start 66.548 60.8965) (end 64.897 62.5475) (width 1.27) (layer B.Cu) (net 1))
  (segment (start 64.897 66.056802) (end 66.594698 67.7545) (width 1.27) (layer B.Cu) (net 1))
  (segment (start 66.594698 67.7545) (end 66.9925 67.7545) (width 1.27) (layer B.Cu) (net 1))
  (segment (start 64.897 62.5475) (end 64.897 66.056802) (width 1.27) (layer B.Cu) (net 1))
  (segment (start 69.094302 78.0415) (end 67.303698 78.0415) (width 1.27) (layer B.Cu) (net 1))
  (via (at 94.361 84.201) (size 2) (drill 1) (layers F.Cu B.Cu) (net 1))
  (segment (start 97.4725 83.693) (end 94.869 83.693) (width 1.27) (layer B.Cu) (net 1))
  (segment (start 94.869 83.693) (end 94.361 84.201) (width 1.27) (layer B.Cu) (net 1))
  (via (at 94.2975 90.551) (size 2) (drill 1) (layers F.Cu B.Cu) (net 1))
  (segment (start 94.361 84.201) (end 94.361 90.4875) (width 1.27) (layer F.Cu) (net 1))
  (segment (start 94.361 90.4875) (end 94.2975 90.551) (width 1.27) (layer F.Cu) (net 1))
  (segment (start 69.094302 84.330804) (end 69.094302 78.0415) (width 1.27) (layer B.Cu) (net 1))
  (segment (start 75.314498 90.551) (end 69.094302 84.330804) (width 1.27) (layer B.Cu) (net 1))
  (segment (start 94.2975 90.551) (end 75.314498 90.551) (width 1.27) (layer B.Cu) (net 1))
  (segment (start 69.039698 43.6245) (end 67.206999 45.457199) (width 1.27) (layer B.Cu) (net 1))
  (segment (start 66.548 51.656591) (end 66.548 60.0955) (width 1.27) (layer B.Cu) (net 1))
  (segment (start 83.2485 43.6245) (end 69.039698 43.6245) (width 1.27) (layer B.Cu) (net 1))
  (segment (start 66.42899 51.537581) (end 66.548 51.656591) (width 1.27) (layer B.Cu) (net 1))
  (segment (start 67.206999 45.457199) (end 67.206999 45.986829) (width 1.27) (layer B.Cu) (net 1))
  (segment (start 67.206999 45.986829) (end 66.42899 46.764838) (width 1.27) (layer B.Cu) (net 1))
  (segment (start 66.42899 46.764838) (end 66.42899 51.537581) (width 1.27) (layer B.Cu) (net 1))
  (segment (start 83.2485 43.6245) (end 84.0105 43.6245) (width 1.27) (layer B.Cu) (net 1))
  (segment (start 84.915001 42.719999) (end 88.249499 42.719999) (width 1.27) (layer B.Cu) (net 1))
  (segment (start 84.0105 43.6245) (end 84.915001 42.719999) (width 1.27) (layer B.Cu) (net 1))
  (segment (start 88.249499 42.719999) (end 88.5825 43.053) (width 1.27) (layer B.Cu) (net 1))
  (segment (start 88.5825 45.601802) (end 85.924302 48.26) (width 1.27) (layer B.Cu) (net 1))
  (segment (start 88.5825 43.053) (end 88.5825 45.601802) (width 1.27) (layer B.Cu) (net 1))
  (segment (start 87.05743 65.3288) (end 88.1888 65.3288) (width 1.27) (layer B.Cu) (net 1))
  (segment (start 85.924302 64.195672) (end 87.05743 65.3288) (width 1.27) (layer B.Cu) (net 1))
  (segment (start 85.924302 48.26) (end 85.924302 64.195672) (width 1.27) (layer B.Cu) (net 1))
  (segment (start 88.29357 42.675928) (end 88.249499 42.719999) (width 1.27) (layer B.Cu) (net 1))
  (segment (start 103.632 50.662) (end 95.645928 42.675928) (width 1.27) (layer B.Cu) (net 1))
  (segment (start 95.645928 42.675928) (end 88.29357 42.675928) (width 1.27) (layer B.Cu) (net 1))
  (segment (start 103.632 52.832) (end 103.632 50.662) (width 1.27) (layer B.Cu) (net 1))
  (segment (start 88.1568 27.855519) (end 88.1568 29.0576) (width 1.27) (layer B.Cu) (net 1))
  (segment (start 86.750202 25.908) (end 88.1568 27.314598) (width 1.27) (layer B.Cu) (net 1))
  (segment (start 88.1568 27.314598) (end 88.1568 27.855519) (width 1.27) (layer B.Cu) (net 1))
  (segment (start 82.804 25.908) (end 86.750202 25.908) (width 1.27) (layer B.Cu) (net 1))
  (segment (start 82.804 22.352) (end 82.804 25.908) (width 1.27) (layer B.Cu) (net 1))
  (segment (start 66.04 20.232) (end 66.46 19.812) (width 1.27) (layer B.Cu) (net 1))
  (segment (start 66.04 22.352) (end 66.04 20.232) (width 1.27) (layer B.Cu) (net 1))
  (segment (start 80.264 19.812) (end 82.804 22.352) (width 1.27) (layer B.Cu) (net 1))
  (segment (start 66.46 19.812) (end 80.264 19.812) (width 1.27) (layer B.Cu) (net 1))
  (segment (start 76.3143 72.9488) (end 75.5015 72.136) (width 1.27) (layer B.Cu) (net 2))
  (segment (start 80.5688 72.9488) (end 76.3143 72.9488) (width 1.27) (layer B.Cu) (net 2))
  (segment (start 75.5015 76.0095) (end 75.565 76.073) (width 1.27) (layer B.Cu) (net 2))
  (segment (start 75.5015 72.136) (end 75.5015 76.0095) (width 1.27) (layer B.Cu) (net 2))
  (segment (start 79.43743 70.4088) (end 78.87863 69.85) (width 1.27) (layer B.Cu) (net 3))
  (segment (start 80.5688 70.4088) (end 79.43743 70.4088) (width 1.27) (layer B.Cu) (net 3))
  (segment (start 72.8875 69.85) (end 70.6015 72.136) (width 1.27) (layer B.Cu) (net 3))
  (segment (start 78.87863 69.85) (end 72.8875 69.85) (width 1.27) (layer B.Cu) (net 3))
  (segment (start 68.199 74.5385) (end 68.199 76.073) (width 1.27) (layer B.Cu) (net 3))
  (segment (start 70.6015 72.136) (end 68.199 74.5385) (width 1.27) (layer B.Cu) (net 3))
  (segment (start 72.3138 65.3288) (end 71.6915 64.7065) (width 1.27) (layer B.Cu) (net 4))
  (segment (start 80.5688 65.3288) (end 72.3138 65.3288) (width 1.27) (layer B.Cu) (net 4))
  (segment (start 88.1888 70.4088) (end 86.9188 70.4088) (width 1.27) (layer B.Cu) (net 4))
  (segment (start 81.8388 65.3288) (end 80.5688 65.3288) (width 1.27) (layer B.Cu) (net 4))
  (segment (start 86.9188 70.4088) (end 81.8388 65.3288) (width 1.27) (layer B.Cu) (net 4))
  (segment (start 71.1835 65.2145) (end 71.6915 64.7065) (width 1.27) (layer B.Cu) (net 4))
  (segment (start 66.9925 65.2145) (end 71.1835 65.2145) (width 1.27) (layer B.Cu) (net 4))
  (segment (start 69.2785 51.883919) (end 68.5165 51.121919) (width 1.27) (layer B.Cu) (net 4))
  (segment (start 69.2785 53.086) (end 69.2785 51.883919) (width 1.27) (layer B.Cu) (net 4))
  (via (at 69.2785 46.99) (size 2) (drill 1) (layers F.Cu B.Cu) (net 4))
  (segment (start 68.5165 51.121919) (end 68.5165 47.752) (width 1.27) (layer B.Cu) (net 4))
  (segment (start 68.5165 47.752) (end 69.2785 46.99) (width 1.27) (layer B.Cu) (net 4))
  (segment (start 69.2785 46.99) (end 92.325502 46.99) (width 1.27) (layer F.Cu) (net 4))
  (via (at 94.107 46.99) (size 2) (drill 1) (layers F.Cu B.Cu) (net 4))
  (segment (start 92.325502 46.99) (end 94.107 46.99) (width 1.27) (layer F.Cu) (net 4))
  (segment (start 95.106999 47.989999) (end 95.106999 61.642499) (width 1.27) (layer B.Cu) (net 4))
  (segment (start 95.106999 61.642499) (end 98.568501 65.104001) (width 1.27) (layer B.Cu) (net 4))
  (segment (start 94.107 46.99) (end 95.106999 47.989999) (width 1.27) (layer B.Cu) (net 4))
  (segment (start 98.568501 67.229999) (end 95.3897 70.4088) (width 1.27) (layer B.Cu) (net 4))
  (segment (start 98.568501 65.104001) (end 98.568501 67.229999) (width 1.27) (layer B.Cu) (net 4))
  (segment (start 97.79 64.0715) (end 97.79 67.183) (width 1.27) (layer B.Cu) (net 4))
  (segment (start 95.3897 70.4088) (end 94.5642 70.4088) (width 1.27) (layer B.Cu) (net 4))
  (segment (start 94.5642 70.4088) (end 88.1888 70.4088) (width 1.27) (layer B.Cu) (net 4))
  (segment (start 97.79 67.183) (end 94.5642 70.4088) (width 1.27) (layer B.Cu) (net 4))
  (via (at 97.79 67.183) (size 2) (drill 1) (layers F.Cu B.Cu) (net 4))
  (via (at 103.378 67.2465) (size 2) (drill 1) (layers F.Cu B.Cu) (net 4))
  (segment (start 97.79 67.183) (end 103.3145 67.183) (width 1.27) (layer F.Cu) (net 4))
  (segment (start 103.3145 67.183) (end 103.378 67.2465) (width 1.27) (layer F.Cu) (net 4))
  (segment (start 103.754581 83.693) (end 102.5525 83.693) (width 1.27) (layer B.Cu) (net 4))
  (segment (start 106.822501 80.62508) (end 103.754581 83.693) (width 1.27) (layer B.Cu) (net 4))
  (segment (start 106.822501 70.691001) (end 106.822501 80.62508) (width 1.27) (layer B.Cu) (net 4))
  (segment (start 103.378 67.2465) (end 106.822501 70.691001) (width 1.27) (layer B.Cu) (net 4))
  (segment (start 83.7184 29.0576) (end 82.804 29.972) (width 1.27) (layer B.Cu) (net 4))
  (segment (start 86.1568 29.0576) (end 83.7184 29.0576) (width 1.27) (layer B.Cu) (net 4))
  (segment (start 68.168999 38.012801) (end 69.272198 39.116) (width 1.27) (layer B.Cu) (net 4))
  (segment (start 66.04 29.972) (end 68.168999 32.100999) (width 1.27) (layer B.Cu) (net 4))
  (segment (start 68.168999 32.100999) (end 68.168999 38.012801) (width 1.27) (layer B.Cu) (net 4))
  (segment (start 69.272198 39.116) (end 72.136 39.116) (width 1.27) (layer B.Cu) (net 4))
  (segment (start 81.28 29.972) (end 82.804 29.972) (width 1.27) (layer B.Cu) (net 4))
  (segment (start 72.136 39.116) (end 81.28 29.972) (width 1.27) (layer B.Cu) (net 4))
  (segment (start 70.104 33.528) (end 70.104 29.972) (width 1.27) (layer B.Cu) (net 5))
  (segment (start 70.104 29.972) (end 70.104 25.908) (width 1.27) (layer B.Cu) (net 5))
  (segment (start 67.564 27.432) (end 66.04 27.432) (width 1.27) (layer B.Cu) (net 5))
  (segment (start 70.104 29.972) (end 67.564 27.432) (width 1.27) (layer B.Cu) (net 5))
  (segment (start 72.374 22.352) (end 70.104 22.352) (width 1.27) (layer B.Cu) (net 6))
  (segment (start 73.152 23.13) (end 72.374 22.352) (width 1.27) (layer B.Cu) (net 6))
  (segment (start 73.152 34.036) (end 73.152 23.13) (width 1.27) (layer B.Cu) (net 6))
  (segment (start 70.104 37.084) (end 73.152 34.036) (width 1.27) (layer B.Cu) (net 6))
  (segment (start 67.243002 24.892) (end 67.242081 24.892) (width 1.27) (layer B.Cu) (net 6))
  (segment (start 69.783002 22.352) (end 67.243002 24.892) (width 1.27) (layer B.Cu) (net 6))
  (segment (start 67.242081 24.892) (end 66.04 24.892) (width 1.27) (layer B.Cu) (net 6))
  (segment (start 70.104 22.352) (end 69.783002 22.352) (width 1.27) (layer B.Cu) (net 6))
  (segment (start 90.5637 67.8688) (end 91.3765 67.056) (width 1.27) (layer B.Cu) (net 7))
  (segment (start 88.1888 67.8688) (end 90.5637 67.8688) (width 1.27) (layer B.Cu) (net 7))
  (segment (start 89.32017 75.4888) (end 89.4715 75.33747) (width 1.27) (layer B.Cu) (net 8))
  (segment (start 88.1888 75.4888) (end 89.32017 75.4888) (width 1.27) (layer B.Cu) (net 8))
  (segment (start 89.4715 75.184) (end 89.93669 74.71881) (width 1.27) (layer B.Cu) (net 8))
  (segment (start 89.4715 75.33747) (end 89.4715 75.184) (width 1.27) (layer B.Cu) (net 8))
  (via (at 95.831754 75.0965) (size 2) (drill 1) (layers F.Cu B.Cu) (net 8))
  (segment (start 89.93669 74.71881) (end 90.31438 75.0965) (width 1.27) (layer B.Cu) (net 8))
  (segment (start 90.31438 75.0965) (end 95.831754 75.0965) (width 1.27) (layer B.Cu) (net 8))
  (via (at 101.971482 75.033608) (size 2) (drill 1) (layers F.Cu B.Cu) (net 8))
  (segment (start 95.831754 75.0965) (end 101.90859 75.0965) (width 1.27) (layer F.Cu) (net 8))
  (segment (start 101.90859 75.0965) (end 101.971482 75.033608) (width 1.27) (layer F.Cu) (net 8))
  (segment (start 101.971482 78.920982) (end 102.5525 79.502) (width 1.27) (layer B.Cu) (net 8))
  (segment (start 101.971482 75.033608) (end 101.971482 78.920982) (width 1.27) (layer B.Cu) (net 8))
  (segment (start 102.5525 79.502) (end 102.5525 81.153) (width 1.27) (layer B.Cu) (net 8))
  (segment (start 94.661381 72.9488) (end 94.674081 72.9615) (width 1.27) (layer B.Cu) (net 9))
  (segment (start 88.1888 72.9488) (end 94.661381 72.9488) (width 1.27) (layer B.Cu) (net 9))
  (segment (start 94.674081 72.9615) (end 97.0915 72.9615) (width 1.27) (layer B.Cu) (net 9))
  (segment (start 100.0125 75.8825) (end 100.0125 79.502) (width 1.27) (layer B.Cu) (net 9))
  (segment (start 97.0915 72.9615) (end 100.0125 75.8825) (width 1.27) (layer B.Cu) (net 9))
  (segment (start 100.0125 79.502) (end 100.0125 81.153) (width 1.27) (layer B.Cu) (net 9))
  (segment (start 100.0125 84.895081) (end 96.706081 88.2015) (width 1.27) (layer B.Cu) (net 10))
  (segment (start 100.0125 83.693) (end 100.0125 84.895081) (width 1.27) (layer B.Cu) (net 10))
  (segment (start 96.706081 88.2015) (end 93.599 88.2015) (width 1.27) (layer B.Cu) (net 10))
  (segment (start 89.32017 78.0288) (end 88.1888 78.0288) (width 1.27) (layer B.Cu) (net 10))
  (segment (start 91.89381 80.60244) (end 89.32017 78.0288) (width 1.27) (layer B.Cu) (net 10))
  (segment (start 93.599 88.2015) (end 91.89381 86.49631) (width 1.27) (layer B.Cu) (net 10))
  (segment (start 91.89381 86.49631) (end 91.89381 80.60244) (width 1.27) (layer B.Cu) (net 10))
  (via (at 97.5995 77.978) (size 2) (drill 1) (layers F.Cu B.Cu) (net 11))
  (segment (start 97.4725 81.153) (end 97.4725 78.105) (width 1.27) (layer B.Cu) (net 11))
  (segment (start 97.4725 78.105) (end 97.5995 77.978) (width 1.27) (layer B.Cu) (net 11))
  (via (at 104.6875 77.851) (size 2) (drill 1) (layers F.Cu B.Cu) (net 11))
  (segment (start 97.5995 77.978) (end 104.5605 77.978) (width 1.27) (layer F.Cu) (net 11))
  (segment (start 104.5605 77.978) (end 104.6875 77.851) (width 1.27) (layer F.Cu) (net 11))
  (segment (start 100.338511 69.223511) (end 104.6875 73.5725) (width 1.27) (layer B.Cu) (net 11))
  (segment (start 104.6875 73.5725) (end 104.6875 74.589824) (width 1.27) (layer B.Cu) (net 11))
  (segment (start 97.79 51.3715) (end 100.338511 53.920011) (width 1.27) (layer B.Cu) (net 11))
  (segment (start 104.6875 74.589824) (end 104.6875 77.851) (width 1.27) (layer B.Cu) (net 11))
  (segment (start 100.338511 53.920011) (end 100.338511 69.223511) (width 1.27) (layer B.Cu) (net 11))
  (via (at 86.1695 44.855) (size 2) (drill 1) (layers F.Cu B.Cu) (net 11))
  (segment (start 80.5688 50.0888) (end 80.9357 50.0888) (width 1.27) (layer B.Cu) (net 11))
  (segment (start 80.9357 50.0888) (end 86.1695 44.855) (width 1.27) (layer B.Cu) (net 11))
  (segment (start 86.1695 44.855) (end 92.906361 44.855) (width 1.27) (layer F.Cu) (net 11))
  (segment (start 92.906361 44.855) (end 93.025171 44.73619) (width 1.27) (layer F.Cu) (net 11))
  (via (at 92.881578 44.810929) (size 2) (drill 1) (layers F.Cu B.Cu) (net 11))
  (segment (start 92.906361 44.855) (end 92.906361 44.835712) (width 1.27) (layer F.Cu) (net 11))
  (segment (start 92.906361 44.835712) (end 92.881578 44.810929) (width 1.27) (layer F.Cu) (net 11))
  (segment (start 97.79 47.513198) (end 97.79 50.24013) (width 1.27) (layer B.Cu) (net 11))
  (segment (start 95.087731 44.810929) (end 97.79 47.513198) (width 1.27) (layer B.Cu) (net 11))
  (segment (start 97.79 50.24013) (end 97.79 51.3715) (width 1.27) (layer B.Cu) (net 11))
  (segment (start 92.881578 44.810929) (end 95.087731 44.810929) (width 1.27) (layer B.Cu) (net 11))
  (segment (start 89.5985 84.6845) (end 89.5985 86.8045) (width 1.27) (layer B.Cu) (net 12))
  (segment (start 90.123801 84.159199) (end 89.5985 84.6845) (width 1.27) (layer B.Cu) (net 12))
  (segment (start 90.123801 81.372431) (end 90.123801 84.159199) (width 1.27) (layer B.Cu) (net 12))
  (segment (start 89.32017 80.5688) (end 90.123801 81.372431) (width 1.27) (layer B.Cu) (net 12))
  (segment (start 88.1888 80.5688) (end 89.32017 80.5688) (width 1.27) (layer B.Cu) (net 12))
  (segment (start 87.0585 84.2391) (end 87.0585 86.8045) (width 1.27) (layer B.Cu) (net 13))
  (segment (start 88.1888 83.1088) (end 87.0585 84.2391) (width 1.27) (layer B.Cu) (net 13))
  (segment (start 80.8228 83.1088) (end 84.5185 86.8045) (width 1.27) (layer B.Cu) (net 14))
  (segment (start 80.5688 83.1088) (end 80.8228 83.1088) (width 1.27) (layer B.Cu) (net 14))
  (segment (start 91.6813 62.7888) (end 91.694 62.8015) (width 1.27) (layer B.Cu) (net 15))
  (segment (start 88.1888 62.7888) (end 91.6813 62.7888) (width 1.27) (layer B.Cu) (net 15))
  (segment (start 91.6813 60.2488) (end 91.694 60.2615) (width 1.27) (layer B.Cu) (net 16))
  (segment (start 88.1888 60.2488) (end 91.6813 60.2488) (width 1.27) (layer B.Cu) (net 16))
  (segment (start 91.6813 57.7088) (end 91.694 57.7215) (width 1.27) (layer B.Cu) (net 17))
  (segment (start 88.1888 57.7088) (end 91.6813 57.7088) (width 1.27) (layer B.Cu) (net 17))
  (segment (start 91.6813 55.1688) (end 91.694 55.1815) (width 1.27) (layer B.Cu) (net 18))
  (segment (start 88.1888 55.1688) (end 91.6813 55.1688) (width 1.27) (layer B.Cu) (net 18))
  (segment (start 91.6813 52.6288) (end 91.694 52.6415) (width 1.27) (layer B.Cu) (net 19))
  (segment (start 88.1888 52.6288) (end 91.6813 52.6288) (width 1.27) (layer B.Cu) (net 19))
  (segment (start 91.6813 50.0888) (end 91.694 50.1015) (width 1.27) (layer B.Cu) (net 20))
  (segment (start 88.1888 50.0888) (end 91.6813 50.0888) (width 1.27) (layer B.Cu) (net 20))
  (segment (start 79.43743 52.6288) (end 78.30713 51.4985) (width 1.27) (layer B.Cu) (net 21))
  (segment (start 78.100581 51.4985) (end 76.8985 51.4985) (width 1.27) (layer B.Cu) (net 21))
  (segment (start 78.30713 51.4985) (end 78.100581 51.4985) (width 1.27) (layer B.Cu) (net 21))
  (segment (start 80.5688 52.6288) (end 79.43743 52.6288) (width 1.27) (layer B.Cu) (net 21))
  (segment (start 78.0288 55.1688) (end 76.8985 54.0385) (width 1.27) (layer B.Cu) (net 22))
  (segment (start 80.5688 55.1688) (end 78.0288 55.1688) (width 1.27) (layer B.Cu) (net 22))
  (segment (start 76.9747 60.2488) (end 76.962 60.2615) (width 1.27) (layer B.Cu) (net 23))
  (segment (start 80.5688 60.2488) (end 76.9747 60.2488) (width 1.27) (layer B.Cu) (net 23))
  (via (at 73.787 59.182) (size 2) (drill 1) (layers F.Cu B.Cu) (net 23))
  (segment (start 76.962 60.2615) (end 74.8665 60.2615) (width 1.27) (layer B.Cu) (net 23))
  (segment (start 74.8665 60.2615) (end 73.787 59.182) (width 1.27) (layer B.Cu) (net 23))
  (via (at 73.787 52.197) (size 2) (drill 1) (layers F.Cu B.Cu) (net 23))
  (segment (start 73.787 59.182) (end 73.787 52.197) (width 1.27) (layer F.Cu) (net 23))
  (segment (start 73.787 52.197) (end 73.787 49.5935) (width 1.27) (layer B.Cu) (net 23))
  (segment (start 74.636999 79.350501) (end 73.787 80.2005) (width 1.27) (layer B.Cu) (net 24))
  (segment (start 75.575729 79.350501) (end 74.636999 79.350501) (width 1.27) (layer B.Cu) (net 24))
  (segment (start 79.43743 75.4888) (end 75.575729 79.350501) (width 1.27) (layer B.Cu) (net 24))
  (segment (start 80.5688 75.4888) (end 79.43743 75.4888) (width 1.27) (layer B.Cu) (net 24))
  (segment (start 74.688902 82.7405) (end 73.787 82.7405) (width 1.27) (layer B.Cu) (net 25))
  (segment (start 79.400602 78.0288) (end 74.688902 82.7405) (width 1.27) (layer B.Cu) (net 25))
  (segment (start 80.5688 78.0288) (end 79.400602 78.0288) (width 1.27) (layer B.Cu) (net 25))
  (segment (start 79.43743 80.5688) (end 74.72573 85.2805) (width 1.27) (layer B.Cu) (net 26))
  (segment (start 74.72573 85.2805) (end 73.787 85.2805) (width 1.27) (layer B.Cu) (net 26))
  (segment (start 80.5688 80.5688) (end 79.43743 80.5688) (width 1.27) (layer B.Cu) (net 26))
  (segment (start 84.1864 33.528) (end 86.1568 31.5576) (width 1.27) (layer B.Cu) (net 27))
  (segment (start 82.804 33.528) (end 84.1864 33.528) (width 1.27) (layer B.Cu) (net 27))
  (segment (start 83.603999 36.284001) (end 82.804 37.084) (width 1.27) (layer B.Cu) (net 28))
  (segment (start 84.368201 36.284001) (end 83.603999 36.284001) (width 1.27) (layer B.Cu) (net 28))
  (segment (start 88.1568 32.495402) (end 84.368201 36.284001) (width 1.27) (layer B.Cu) (net 28))
  (segment (start 88.1568 31.5576) (end 88.1568 32.495402) (width 1.27) (layer B.Cu) (net 28))
  (segment (start 76.9747 62.7888) (end 76.962 62.8015) (width 1.27) (layer B.Cu) (net 30))
  (segment (start 80.5688 62.7888) (end 76.9747 62.7888) (width 1.27) (layer B.Cu) (net 30))
  (segment (start 74.246698 62.8015) (end 71.651999 60.206801) (width 1.27) (layer B.Cu) (net 30))
  (segment (start 76.962 62.8015) (end 74.246698 62.8015) (width 1.27) (layer B.Cu) (net 30))
  (segment (start 70.480581 58.166) (end 69.2785 58.166) (width 1.27) (layer B.Cu) (net 30))
  (segment (start 70.481502 58.166) (end 70.480581 58.166) (width 1.27) (layer B.Cu) (net 30))
  (segment (start 71.651999 59.336497) (end 70.481502 58.166) (width 1.27) (layer B.Cu) (net 30))
  (segment (start 71.651999 60.206801) (end 71.651999 59.336497) (width 1.27) (layer B.Cu) (net 30))
  (segment (start 76.9747 57.7088) (end 76.962 57.7215) (width 1.27) (layer B.Cu) (net 31))
  (segment (start 80.5688 57.7088) (end 76.9747 57.7088) (width 1.27) (layer B.Cu) (net 31))
  (segment (start 74.8665 55.626) (end 76.962 57.7215) (width 1.27) (layer B.Cu) (net 31))
  (segment (start 69.2785 55.626) (end 74.8665 55.626) (width 1.27) (layer B.Cu) (net 31))
  (segment (start 106.172 52.832) (end 106.172 56.896) (width 1.27) (layer B.Cu) (net 32))

)
